FIPS,HR_UID,nameid,province,region,analysisTime,dates,pointprevalence_025,pointprevalence_50,pointprevalence_975,pointinfections_025,pointinfections_50,pointinfections_975,pointinfectious_025,pointinfectious_50,pointinfectious_975,pointinfectiousprevalence_05,pointinfectiousprevalence_50,pointinfectiousprevalence_95,infectrate_025,infectrate_50,infectrate_975
0,0,SanMarino,,,2021-07-21 03:50:05.473638,2020-03-09 00:00:00.000000,0.28794291,0.43799878,0.78304272,97,148,265,43,74,118,0.12732062,0.21948717,0.34956573,0.47769428,0.59769590,0.71254512
0,0,SanMarino,,,2021-07-21 03:50:05.473638,2020-03-10 00:00:00.000000,0.33985931,0.51020336,0.85681465,115,173,290,49,79,138,0.14470765,0.23490642,0.40675490,0.47756068,0.59769480,0.71254240
0,0,SanMarino,,,2021-07-21 03:50:05.473638,2020-03-11 00:00:00.000000,0.40121044,0.58098508,0.93429950,136,197,317,61,89,156,0.18032498,0.26453931,0.46008774,0.47727204,0.59769175,0.71253753
0,0,SanMarino,,,2021-07-21 03:50:05.473638,2020-03-12 00:00:00.000000,0.47587589,0.66292589,1.02013139,161,224,346,70,103,170,0.20811071,0.30425836,0.50279884,0.47665115,0.59768267,0.71252877
0,0,SanMarino,,,2021-07-21 03:50:05.473638,2020-03-13 00:00:00.000000,0.53937841,0.74929716,1.15109976,183,254,390,82,119,193,0.24178450,0.35108790,0.56933646,0.47532775,0.59765314,0.71251270
0,0,SanMarino,,,2021-07-21 03:50:05.473638,2020-03-14 00:00:00.000000,0.60929996,0.85185414,1.28392176,206,289,435,94,136,213,0.27721798,0.40231414,0.62926809,0.47256153,0.59754592,0.71248206
0,0,SanMarino,,,2021-07-21 03:50:05.473638,2020-03-15 00:00:00.000000,0.69178869,0.96030241,1.40900790,234,325,478,107,154,235,0.31680444,0.45458914,0.69344701,0.47060280,0.59507212,0.71241805
0,0,SanMarino,,,2021-07-21 03:50:05.473638,2020-03-16 00:00:00.000000,0.77388793,1.08318506,1.54466239,262,367,524,122,173,258,0.36069192,0.51223109,0.76262391,0.46975015,0.58761516,0.69796315
0,0,SanMarino,,,2021-07-21 03:50:05.473638,2020-03-17 00:00:00.000000,0.86534307,1.20880373,1.69028448,293,410,573,138,198,292,0.40817392,0.58380257,0.86119364,0.45559742,0.57318408,0.68442137
0,0,SanMarino,,,2021-07-21 03:50:05.473638,2020-03-18 00:00:00.000000,0.96867081,1.34688527,1.84521840,328,457,626,156,223,326,0.46094742,0.65883309,0.96144200,0.41754743,0.54649334,0.67639460
0,0,SanMarino,,,2021-07-21 03:50:05.473638,2020-03-19 00:00:00.000000,1.06333602,1.46595081,1.99601698,360,497,677,182,243,349,0.53642565,0.71863356,1.02971383,0.38344594,0.52744328,0.66540900
0,0,SanMarino,,,2021-07-21 03:50:05.473638,2020-03-20 00:00:00.000000,1.16620749,1.59344503,2.11451987,395,540,717,203,270,372,0.59863175,0.79586262,1.09656901,0.35538203,0.49015451,0.63646129
0,0,SanMarino,,,2021-07-21 03:50:05.473638,2020-03-21 00:00:00.000000,1.27647102,1.70069364,2.22815308,433,577,756,223,298,408,0.65770489,0.88087510,1.20386136,0.32917983,0.44845877,0.57933599
0,0,SanMarino,,,2021-07-21 03:50:05.473638,2020-03-22 00:00:00.000000,1.37335242,1.80878935,2.38531318,466,613,809,244,325,454,0.72018085,0.95993906,1.33793812,0.29430002,0.41573031,0.54496606
0,0,SanMarino,,,2021-07-21 03:50:05.473638,2020-03-23 00:00:00.000000,1.44176069,1.92475569,2.56562273,489,653,870,265,348,501,0.78332163,1.02754124,1.47663586,0.28754803,0.39640510,0.52931339
0,0,SanMarino,,,2021-07-21 03:50:05.473638,2020-03-24 00:00:00.000000,1.53532075,2.02711681,2.70735999,521,687,918,287,373,545,0.84802426,1.09949298,1.60847056,0.25803323,0.38293592,0.49231786
0,0,SanMarino,,,2021-07-21 03:50:05.473638,2020-03-25 00:00:00.000000,1.59935617,2.11066566,2.84941201,542,716,967,300,395,586,0.88613246,1.16594702,1.72766367,0.25288018,0.36641067,0.48712680
0,0,SanMarino,,,2021-07-21 03:50:05.473638,2020-03-26 00:00:00.000000,1.64863343,2.21067309,2.97860389,559,750,1010,312,415,621,0.91954885,1.22559265,1.83241185,0.23343364,0.35371596,0.48683622
0,0,SanMarino,,,2021-07-21 03:50:05.473638,2020-03-27 00:00:00.000000,1.70802795,2.28880123,3.13933278,579,776,1065,322,436,650,0.95062865,1.28631252,1.91716510,0.22097465,0.33369859,0.46688711
0,0,SanMarino,,,2021-07-21 03:50:05.473638,2020-03-28 00:00:00.000000,1.72790450,2.35918806,3.21292589,586,800,1090,331,457,669,0.97642894,1.34904013,1.97127672,0.22097592,0.31937742,0.38264352
0,0,SanMarino,,,2021-07-21 03:50:05.473638,2020-03-29 00:00:00.000000,1.74821872,2.43805261,3.36768692,593,827,1142,338,475,684,0.99696562,1.40193694,2.01689361,0.22155416,0.30966783,0.37812409
0,0,SanMarino,,,2021-07-21 03:50:05.473638,2020-03-30 00:00:00.000000,1.78059141,2.50633685,3.48403160,604,850,1182,346,495,701,1.01993364,1.45878326,2.06784521,0.21752681,0.29640444,0.36762733
0,0,SanMarino,,,2021-07-21 03:50:05.473638,2020-03-31 00:00:00.000000,1.81389954,2.52951857,3.52900676,615,858,1197,355,504,712,1.04649539,1.48755563,2.10086621,0.21753491,0.29005105,0.36852466
0,0,SanMarino,,,2021-07-21 03:50:05.473638,2020-04-01 00:00:00.000000,1.84909949,2.56845858,3.56519557,627,871,1209,363,515,723,1.07104679,1.52023390,2.13107222,0.20940991,0.28531872,0.36742081
0,0,SanMarino,,,2021-07-21 03:50:05.473638,2020-04-02 00:00:00.000000,1.88612614,2.60399671,3.61338689,640,883,1226,371,529,732,1.09445434,1.55878514,2.15936208,0.21269560,0.28073741,0.36258848
0,0,SanMarino,,,2021-07-21 03:50:05.473638,2020-04-03 00:00:00.000000,1.92522246,2.65014001,3.65192755,653,899,1239,379,540,741,1.11722552,1.59385043,2.18624568,0.21229130,0.27520187,0.34816949
0,0,SanMarino,,,2021-07-21 03:50:05.473638,2020-04-04 00:00:00.000000,1.96649783,2.68508847,3.67273978,667,911,1246,386,546,750,1.13965181,1.61078680,2.21185558,0.20512033,0.27012099,0.34347808
0,0,SanMarino,,,2021-07-21 03:50:05.473638,2020-04-05 00:00:00.000000,2.00605374,2.70650412,3.65504416,680,918,1240,393,555,758,1.15962741,1.63568652,2.23566900,0.20474129,0.26175829,0.32674369
0,0,SanMarino,,,2021-07-21 03:50:05.473638,2020-04-06 00:00:00.000000,2.03059216,2.74355889,3.61688170,689,931,1227,396,563,765,1.16967569,1.65986065,2.25456110,0.18275343,0.25673515,0.32505578
0,0,SanMarino,,,2021-07-21 03:50:05.473638,2020-04-07 00:00:00.000000,2.04677730,2.76214245,3.63651882,694,937,1234,401,571,769,1.18339321,1.68323561,2.26591025,0.17799249,0.25231735,0.32926635
0,0,SanMarino,,,2021-07-21 03:50:05.473638,2020-04-08 00:00:00.000000,2.06030574,2.77432261,3.69680966,699,941,1254,413,573,773,1.21812338,1.68947786,2.27803935,0.17637817,0.24342966,0.32651833
0,0,SanMarino,,,2021-07-21 03:50:05.473638,2020-04-09 00:00:00.000000,2.06950528,2.78537575,3.75373401,702,945,1273,411,578,795,1.21293537,1.70312431,2.34329801,0.17239821,0.23763896,0.32606720
0,0,SanMarino,,,2021-07-21 03:50:05.473638,2020-04-10 00:00:00.000000,2.09268211,2.75998722,3.80850436,710,936,1292,409,582,816,1.20743198,1.71703047,2.40715748,0.16094510,0.23130033,0.32488133
0,0,SanMarino,,,2021-07-21 03:50:05.473638,2020-04-11 00:00:00.000000,2.13098145,2.74255109,3.85169695,723,930,1307,411,580,837,1.21149059,1.71156003,2.46808120,0.15561175,0.22632107,0.32211123
0,0,SanMarino,,,2021-07-21 03:50:05.473638,2020-04-12 00:00:00.000000,2.09568188,2.74039161,3.86853564,711,930,1312,419,577,856,1.23746740,1.70137043,2.52366290,0.14882260,0.22044902,0.31466810
0,0,SanMarino,,,2021-07-21 03:50:05.473638,2020-04-13 00:00:00.000000,2.04765364,2.72909971,3.76476785,694,926,1277,413,579,845,1.21726251,1.70774220,2.49102799,0.14067475,0.21535909,0.29517314
0,0,SanMarino,,,2021-07-21 03:50:05.473638,2020-04-14 00:00:00.000000,1.99957249,2.69847238,3.63104331,678,915,1232,405,574,825,1.19358184,1.69375491,2.43170105,0.13505841,0.20693329,0.29584066
0,0,SanMarino,,,2021-07-21 03:50:05.473638,2020-04-15 00:00:00.000000,1.95129615,2.68169159,3.49385128,662,910,1185,401,569,803,1.18330562,1.67943834,2.36742738,0.12834747,0.20082391,0.29371116
0,0,SanMarino,,,2021-07-21 03:50:05.473638,2020-04-16 00:00:00.000000,1.90188473,2.64434080,3.35405437,645,897,1138,399,564,794,1.17642221,1.66333875,2.33997209,0.11775827,0.19713422,0.27986225
0,0,SanMarino,,,2021-07-21 03:50:05.473638,2020-04-17 00:00:00.000000,1.88622598,2.57526126,3.31544265,640,873,1125,396,554,787,1.16897482,1.63241522,2.32166669,0.10883390,0.19212522,0.25916852
0,0,SanMarino,,,2021-07-21 03:50:05.473638,2020-04-18 00:00:00.000000,1.86419103,2.50471845,3.27076291,632,850,1110,393,548,776,1.16061018,1.61565214,2.28917889,0.10427037,0.18211374,0.24443936
0,0,SanMarino,,,2021-07-21 03:50:05.473638,2020-04-19 00:00:00.000000,1.80785572,2.41236379,3.28180479,613,818,1113,388,533,754,1.14576373,1.57057973,2.22245950,0.10262683,0.16999492,0.22880407
0,0,SanMarino,,,2021-07-21 03:50:05.473638,2020-04-20 00:00:00.000000,1.73757062,2.34811468,3.30938596,589,796,1123,375,517,741,1.10681109,1.52410522,2.18439752,0.09630711,0.16170374,0.21924237
0,0,SanMarino,,,2021-07-21 03:50:05.473638,2020-04-21 00:00:00.000000,1.66560180,2.28544889,3.27378843,565,775,1111,361,504,735,1.06579537,1.48617268,2.16611236,0.08843205,0.15597697,0.21403693
0,0,SanMarino,,,2021-07-21 03:50:05.473638,2020-04-22 00:00:00.000000,1.59224916,2.22292531,3.14615644,540,754,1067,347,487,719,1.02394694,1.43655495,2.11897987,0.08775329,0.15181385,0.20823295
0,0,SanMarino,,,2021-07-21 03:50:05.473638,2020-04-23 00:00:00.000000,1.51671145,2.15042669,3.01901624,514,729,1024,333,472,702,0.98208986,1.39151999,2.07026018,0.08848625,0.14691931,0.19815089
0,0,SanMarino,,,2021-07-21 03:50:05.473638,2020-04-24 00:00:00.000000,1.43952273,2.06110718,2.89139907,488,699,981,319,457,690,0.94075733,1.34759860,2.03443527,0.08682725,0.14163793,0.19498113
0,0,SanMarino,,,2021-07-21 03:50:05.473638,2020-04-25 00:00:00.000000,1.37342643,1.97059879,2.76181599,466,668,937,305,442,673,0.90000280,1.30240384,1.98458317,0.07741493,0.13559565,0.19195614
0,0,SanMarino,,,2021-07-21 03:50:05.473638,2020-04-26 00:00:00.000000,1.32801558,1.88767124,2.63187234,450,640,893,291,424,652,0.85989651,1.25212729,1.92247900,0.07919364,0.12790487,0.18252772
0,0,SanMarino,,,2021-07-21 03:50:05.473638,2020-04-27 00:00:00.000000,1.27254341,1.80282014,2.52826135,431,611,858,278,409,628,0.82048245,1.20747916,1.85099410,0.07525634,0.12298066,0.17608807
0,0,SanMarino,,,2021-07-21 03:50:05.473638,2020-04-28 00:00:00.000000,1.20140538,1.71705791,2.48691542,407,582,844,265,392,602,0.78189201,1.15718217,1.77552214,0.06961804,0.11795307,0.17588060
0,0,SanMarino,,,2021-07-21 03:50:05.473638,2020-04-29 00:00:00.000000,1.12685827,1.62992191,2.41378241,382,553,819,254,371,576,0.74937269,1.09479996,1.69838081,0.07172783,0.11196652,0.17560498
0,0,SanMarino,,,2021-07-21 03:50:05.473638,2020-04-30 00:00:00.000000,1.05404549,1.54804577,2.28403865,357,525,775,245,349,550,0.72257804,1.02916168,1.62147551,0.07121920,0.10927822,0.17493939
0,0,SanMarino,,,2021-07-21 03:50:05.473638,2020-05-01 00:00:00.000000,0.98298437,1.46665966,2.15570420,333,497,731,234,333,527,0.69051612,0.98198837,1.55329920,0.07051533,0.10531678,0.17299551
0,0,SanMarino,,,2021-07-21 03:50:05.473638,2020-05-02 00:00:00.000000,0.91509569,1.38799622,2.05351615,310,471,696,220,317,503,0.64942318,0.93500446,1.48373728,0.06969054,0.09986248,0.16778809
0,0,SanMarino,,,2021-07-21 03:50:05.473638,2020-05-03 00:00:00.000000,0.86352768,1.30432977,1.96976966,293,442,668,205,301,480,0.60595143,0.88972920,1.41550616,0.06935984,0.09572312,0.15785270
0,0,SanMarino,,,2021-07-21 03:50:05.473638,2020-05-04 00:00:00.000000,0.80906547,1.23404219,1.88901733,274,418,641,194,287,457,0.57295218,0.84598882,1.34855839,0.06465222,0.09370484,0.14714545
0,0,SanMarino,,,2021-07-21 03:50:05.473638,2020-05-05 00:00:00.000000,0.75793412,1.16221403,1.81109787,257,394,614,182,273,435,0.53818309,0.80474589,1.28396837,0.06070944,0.09246309,0.14151923
0,0,SanMarino,,,2021-07-21 03:50:05.473638,2020-05-06 00:00:00.000000,0.70973643,1.09302838,1.71868523,240,370,583,169,258,414,0.50052616,0.76120905,1.22244580,0.06061044,0.08950428,0.13928346
0,0,SanMarino,,,2021-07-21 03:50:05.473638,2020-05-07 00:00:00.000000,0.66446671,1.02141799,1.62286330,225,346,550,157,243,395,0.46367393,0.71613414,1.16392565,0.05498013,0.08774975,0.13677174
0,0,SanMarino,,,2021-07-21 03:50:05.473638,2020-05-08 00:00:00.000000,0.62182241,0.95812170,1.53054786,211,325,519,145,227,376,0.42828370,0.67106002,1.10799740,0.05171771,0.08691372,0.12351279
0,0,SanMarino,,,2021-07-21 03:50:05.473638,2020-05-09 00:00:00.000000,0.58168728,0.90159946,1.44281231,197,305,489,133,214,357,0.39474378,0.63087778,1.05373386,0.05019565,0.08433076,0.11950686
0,0,SanMarino,,,2021-07-21 03:50:05.473638,2020-05-10 00:00:00.000000,0.54423586,0.84871076,1.35987616,184,288,461,123,200,339,0.36325112,0.59121671,1.00054859,0.04762660,0.08281634,0.11290883
0,0,SanMarino,,,2021-07-21 03:50:05.473638,2020-05-11 00:00:00.000000,0.50052060,0.79042549,1.27474796,169,268,432,113,188,322,0.33409659,0.55466856,0.94880144,0.04727255,0.08115660,0.10895388
0,0,SanMarino,,,2021-07-21 03:50:05.473638,2020-05-12 00:00:00.000000,0.45854609,0.73573273,1.19450110,155,249,405,104,175,304,0.30783341,0.51857397,0.89623409,0.04740228,0.07977459,0.10721966
0,0,SanMarino,,,2021-07-21 03:50:05.473638,2020-05-13 00:00:00.000000,0.42005077,0.69129942,1.11889790,142,234,379,96,164,286,0.28308661,0.48394809,0.84440578,0.04605722,0.07643767,0.10577518
0,0,SanMarino,,,2021-07-21 03:50:05.473638,2020-05-14 00:00:00.000000,0.38474191,0.64649628,1.04788915,130,219,355,88,152,272,0.26006751,0.45019165,0.80300982,0.04526643,0.07242277,0.10584241
0,0,SanMarino,,,2021-07-21 03:50:05.473638,2020-05-15 00:00:00.000000,0.35241193,0.60162056,0.98133772,119,204,333,81,142,259,0.23881678,0.41951147,0.76439102,0.04467687,0.07233259,0.10584549
0,0,SanMarino,,,2021-07-21 03:50:05.473638,2020-05-16 00:00:00.000000,0.32285679,0.55335846,0.91905648,109,187,311,74,132,246,0.21912557,0.39135561,0.72721941,0.04281889,0.06999615,0.10443945
0,0,SanMarino,,,2021-07-21 03:50:05.473638,2020-05-17 00:00:00.000000,0.29475369,0.51410113,0.86689291,100,174,294,67,123,232,0.20021794,0.36287857,0.68541591,0.04201492,0.06703993,0.10459899
0,0,SanMarino,,,2021-07-21 03:50:05.473638,2020-05-18 00:00:00.000000,0.26661819,0.48015285,0.82641482,90,162,280,61,114,218,0.18223745,0.33693882,0.64445065,0.04220379,0.06585589,0.10297141
0,0,SanMarino,,,2021-07-21 03:50:05.473638,2020-05-19 00:00:00.000000,0.24124211,0.44697625,0.78798703,81,151,267,56,106,207,0.16759976,0.31443943,0.61267866,0.04059538,0.06441658,0.09836556
0,0,SanMarino,,,2021-07-21 03:50:05.473638,2020-05-20 00:00:00.000000,0.22547289,0.41707381,0.75145637,76,141,255,52,98,197,0.15494717,0.29143718,0.58292836,0.03931930,0.06310015,0.09609473
0,0,SanMarino,,,2021-07-21 03:50:05.473638,2020-05-21 00:00:00.000000,0.21262739,0.38880008,0.71622594,72,131,243,48,92,188,0.14380256,0.27126770,0.55501542,0.03901581,0.06272547,0.09646771
0,0,SanMarino,,,2021-07-21 03:50:05.473638,2020-05-22 00:00:00.000000,0.19487679,0.36145834,0.68160828,66,122,231,45,85,179,0.13400962,0.25280304,0.52879505,0.03824001,0.06197874,0.09689763
0,0,SanMarino,,,2021-07-21 03:50:05.473638,2020-05-23 00:00:00.000000,0.17721127,0.33576802,0.64763050,60,113,219,41,79,171,0.12251496,0.23445948,0.50413507,0.03685726,0.06099722,0.09727788
0,0,SanMarino,,,2021-07-21 03:50:05.473638,2020-05-24 00:00:00.000000,0.16164527,0.31209503,0.61490437,54,105,208,39,74,163,0.11496871,0.22002686,0.48088590,0.03612679,0.06142619,0.09767029
0,0,SanMarino,,,2021-07-21 03:50:05.473638,2020-05-25 00:00:00.000000,0.14912060,0.29076921,0.58637699,50,98,199,35,70,155,0.10559956,0.20642483,0.45876952,0.03559051,0.06099407,0.09877048
0,0,SanMarino,,,2021-07-21 03:50:05.473638,2020-05-26 00:00:00.000000,0.13808919,0.27428891,0.55967882,46,93,189,32,65,148,0.09681364,0.19428290,0.43623264,0.03534674,0.06146762,0.10162402
0,0,SanMarino,,,2021-07-21 03:50:05.473638,2020-05-27 00:00:00.000000,0.13372665,0.25880786,0.53491883,45,87,181,30,62,140,0.08974422,0.18303906,0.41345333,0.03433424,0.06044810,0.10175188
0,0,SanMarino,,,2021-07-21 03:50:05.473638,2020-05-28 00:00:00.000000,0.13071393,0.24406352,0.51201731,44,82,173,29,58,132,0.08611981,0.17223712,0.39084898,0.03366488,0.06185355,0.10102822
0,0,SanMarino,,,2021-07-21 03:50:05.473638,2020-05-29 00:00:00.000000,0.12844042,0.22963864,0.49088298,43,77,166,28,54,125,0.08344838,0.16141959,0.36879169,0.03341904,0.06176181,0.10082814
0,0,SanMarino,,,2021-07-21 03:50:05.473638,2020-05-30 00:00:00.000000,0.12671437,0.21648569,0.47140603,43,73,159,27,51,117,0.08144801,0.15265904,0.34754158,0.03256091,0.06161720,0.10147669
0,0,SanMarino,,,2021-07-21 03:50:05.473638,2020-05-31 00:00:00.000000,0.12346163,0.20343810,0.45345315,41,69,153,26,48,111,0.07797470,0.14333173,0.32726258,0.02823832,0.06028100,0.10156849
0,0,SanMarino,,,2021-07-21 03:50:05.473638,2020-06-01 00:00:00.000000,0.11436855,0.19103005,0.43292759,38,64,146,25,46,104,0.07410343,0.13585741,0.30804636,0.02733840,0.06005255,0.09794302
0,0,SanMarino,,,2021-07-21 03:50:05.473638,2020-06-02 00:00:00.000000,0.10615972,0.18055802,0.41362444,36,61,140,24,43,98,0.07078439,0.12809998,0.29002340,0.02720454,0.06033064,0.09864441
0,0,SanMarino,,,2021-07-21 03:50:05.473638,2020-06-03 00:00:00.000000,0.10024163,0.17043791,0.39536924,34,57,134,22,41,92,0.06775164,0.12087000,0.27316908,0.02515184,0.06045730,0.10055978
0,0,SanMarino,,,2021-07-21 03:50:05.473638,2020-06-04 00:00:00.000000,0.10149316,0.16117750,0.37468387,34,54,127,21,38,87,0.06328685,0.11369808,0.25744639,0.02513042,0.05928521,0.10070417
0,0,SanMarino,,,2021-07-21 03:50:05.473638,2020-06-05 00:00:00.000000,0.09801269,0.15313478,0.35441014,33,51,120,20,36,82,0.06138835,0.10831375,0.24282076,0.02520964,0.05952351,0.09890528
0,0,SanMarino,,,2021-07-21 03:50:05.473638,2020-06-06 00:00:00.000000,0.09175463,0.15132059,0.33570195,31,51,113,21,35,77,0.06210317,0.10373600,0.22925647,0.02553363,0.05925844,0.09721809
0,0,SanMarino,,,2021-07-21 03:50:05.473638,2020-06-07 00:00:00.000000,0.08610287,0.14779933,0.31837797,29,50,108,20,33,73,0.05982324,0.10015714,0.21669322,0.02602214,0.06185418,0.09767215
0,0,SanMarino,,,2021-07-21 03:50:05.473638,2020-06-08 00:00:00.000000,0.08039107,0.13997168,0.29992531,27,47,101,18,32,71,0.05568775,0.09662208,0.20936511,0.02636562,0.06215305,0.09604217
0,0,SanMarino,,,2021-07-21 03:50:05.473638,2020-06-09 00:00:00.000000,0.07517363,0.13262245,0.28261661,25,45,95,17,31,68,0.05226692,0.09246939,0.20182209,0.02657903,0.06026741,0.09338410
0,0,SanMarino,,,2021-07-21 03:50:05.473638,2020-06-10 00:00:00.000000,0.07036603,0.13154929,0.26633311,23,44,90,16,29,65,0.04951911,0.08831890,0.19360763,0.02687939,0.06127871,0.09640595
0,0,SanMarino,,,2021-07-21 03:50:05.473638,2020-06-11 00:00:00.000000,0.06909945,0.12630412,0.25103097,23,42,85,16,28,62,0.04730484,0.08429054,0.18512474,0.02753738,0.05937582,0.10011631
0,0,SanMarino,,,2021-07-21 03:50:05.473638,2020-06-12 00:00:00.000000,0.06817887,0.12156945,0.23664300,23,41,80,15,27,59,0.04502457,0.08037551,0.17663303,0.02856550,0.06087164,0.10351771
0,0,SanMarino,,,2021-07-21 03:50:05.473638,2020-06-13 00:00:00.000000,0.06747806,0.11764335,0.22308759,22,39,75,14,26,57,0.04218189,0.07740910,0.16829673,0.02896160,0.05948022,0.10165209
0,0,SanMarino,,,2021-07-21 03:50:05.473638,2020-06-14 00:00:00.000000,0.06695256,0.11371414,0.21029281,22,38,71,13,25,54,0.03985017,0.07449952,0.16021805,0.02753110,0.06037924,0.10167144
0,0,SanMarino,,,2021-07-21 03:50:05.473638,2020-06-15 00:00:00.000000,0.06449220,0.10917627,0.20490152,21,37,69,13,24,51,0.03931076,0.07147010,0.15245971,0.02730579,0.06125229,0.10153881
0,0,SanMarino,,,2021-07-21 03:50:05.473638,2020-06-16 00:00:00.000000,0.06508028,0.10458621,0.20023053,22,35,67,13,23,49,0.03879684,0.06988947,0.14531030,0.02804308,0.06145372,0.10115800
0,0,SanMarino,,,2021-07-21 03:50:05.473638,2020-06-17 00:00:00.000000,0.06041333,0.10111732,0.19632109,20,34,66,13,22,47,0.03911002,0.06770873,0.13869089,0.02776409,0.06113015,0.10020621
0,0,SanMarino,,,2021-07-21 03:50:05.473638,2020-06-18 00:00:00.000000,0.06086906,0.09632019,0.19298566,20,32,65,12,22,44,0.03760259,0.06554267,0.13245658,0.02785875,0.06135495,0.09876866
0,0,SanMarino,,,2021-07-21 03:50:05.473638,2020-06-19 00:00:00.000000,0.05901868,0.09321705,0.18998090,20,31,64,12,21,42,0.03715161,0.06345349,0.12665482,0.02788280,0.06152692,0.09986572
0,0,SanMarino,,,2021-07-21 03:50:05.473638,2020-06-20 00:00:00.000000,0.05591263,0.08999857,0.18730769,18,30,63,12,20,41,0.03665047,0.06160580,0.12125369,0.02789728,0.06195463,0.10033793
0,0,SanMarino,,,2021-07-21 03:50:05.473638,2020-06-21 00:00:00.000000,0.05465663,0.08978118,0.18487248,18,30,62,12,20,39,0.03621180,0.06096628,0.11622562,0.02791592,0.06235238,0.10080734
0,0,SanMarino,,,2021-07-21 03:50:05.473638,2020-06-22 00:00:00.000000,0.05231367,0.08766029,0.17646260,17,29,59,11,19,37,0.03464092,0.05874826,0.11154683,0.02794729,0.06269469,0.10421450
0,0,SanMarino,,,2021-07-21 03:50:05.473638,2020-06-23 00:00:00.000000,0.05006656,0.08464756,0.16943738,16,28,57,11,19,36,0.03285537,0.05722926,0.10722905,0.02862095,0.06386691,0.10332421
0,0,SanMarino,,,2021-07-21 03:50:05.473638,2020-06-24 00:00:00.000000,0.04790436,0.08264161,0.17041473,16,28,57,10,18,35,0.03123746,0.05584980,0.10528070,0.03130020,0.06488863,0.10295416
0,0,SanMarino,,,2021-07-21 03:50:05.473638,2020-06-25 00:00:00.000000,0.04586119,0.08082506,0.16705444,15,27,56,10,18,35,0.02980067,0.05363475,0.10506726,0.03178114,0.06326341,0.10946080
0,0,SanMarino,,,2021-07-21 03:50:05.473638,2020-06-26 00:00:00.000000,0.04395467,0.07900719,0.16266885,14,26,55,9,17,35,0.02856379,0.05187139,0.10415313,0.03195766,0.06341069,0.10939986
0,0,SanMarino,,,2021-07-21 03:50:05.473638,2020-06-27 00:00:00.000000,0.04219231,0.07749469,0.16573739,14,26,56,9,17,34,0.02737650,0.05145802,0.10292994,0.03175880,0.06370902,0.10899616
0,0,SanMarino,,,2021-07-21 03:50:05.473638,2020-06-28 00:00:00.000000,0.04057375,0.07582497,0.16856462,13,25,57,8,17,34,0.02625600,0.05049821,0.10161043,0.03164631,0.06469107,0.10800395
0,0,SanMarino,,,2021-07-21 03:50:05.473638,2020-06-29 00:00:00.000000,0.03910232,0.07450413,0.16262141,13,25,55,8,16,34,0.02526948,0.04930873,0.10042305,0.03163599,0.06504097,0.10527241
0,0,SanMarino,,,2021-07-21 03:50:05.473638,2020-06-30 00:00:00.000000,0.03775937,0.07270497,0.15642291,12,24,53,8,16,33,0.02451692,0.04851054,0.09805686,0.03164398,0.06543572,0.10318658
0,0,SanMarino,,,2021-07-21 03:50:05.473638,2020-07-01 00:00:00.000000,0.03673236,0.07422185,0.14983913,12,25,50,8,16,32,0.02390620,0.04715088,0.09532711,0.03173864,0.06519445,0.10378630
0,0,SanMarino,,,2021-07-21 03:50:05.473638,2020-07-02 00:00:00.000000,0.03615175,0.07588773,0.14309150,12,25,48,7,15,31,0.02340065,0.04604499,0.09239620,0.03191305,0.06587954,0.10349902
0,0,SanMarino,,,2021-07-21 03:50:05.473638,2020-07-03 00:00:00.000000,0.03647163,0.07589836,0.13634093,12,25,46,7,15,30,0.02297624,0.04694928,0.08945352,0.03229674,0.06682936,0.10236687
0,0,SanMarino,,,2021-07-21 03:50:05.473638,2020-07-04 00:00:00.000000,0.03787789,0.07555725,0.12976800,12,25,44,7,16,29,0.02261632,0.04892785,0.08660548,0.03282102,0.06815425,0.10205161
0,0,SanMarino,,,2021-07-21 03:50:05.473638,2020-07-05 00:00:00.000000,0.03920546,0.07376730,0.12438748,13,25,42,7,16,28,0.02232242,0.04767814,0.08390716,0.03303871,0.06836492,0.10317594
0,0,SanMarino,,,2021-07-21 03:50:05.473638,2020-07-06 00:00:00.000000,0.03699682,0.06921040,0.11589573,12,23,39,7,15,27,0.02209561,0.04713356,0.08020166,0.03309120,0.06845920,0.10854189
0,0,SanMarino,,,2021-07-21 03:50:05.473638,2020-07-07 00:00:00.000000,0.03397367,0.06430733,0.10769150,11,21,36,7,15,25,0.02153034,0.04490573,0.07568990,0.03308920,0.07043339,0.10894509
0,0,SanMarino,,,2021-07-21 03:50:05.473638,2020-07-08 00:00:00.000000,0.03085526,0.05933167,0.09967822,10,20,33,7,14,24,0.02067971,0.04260583,0.07134185,0.03297154,0.07188280,0.10791138
0,0,SanMarino,,,2021-07-21 03:50:05.473638,2020-07-09 00:00:00.000000,0.02789579,0.05450911,0.09203815,9,18,31,6,13,23,0.01951331,0.03996806,0.06786910,0.03296205,0.07081234,0.10380963
0,0,SanMarino,,,2021-07-21 03:50:05.473638,2020-07-10 00:00:00.000000,0.02514689,0.05022342,0.08629684,8,17,29,6,12,21,0.01788397,0.03705488,0.06333530,0.03270041,0.06918443,0.10171191
0,0,SanMarino,,,2021-07-21 03:50:05.473638,2020-07-11 00:00:00.000000,0.02262940,0.04643112,0.08106909,7,15,27,5,11,20,0.01619424,0.03409570,0.06006863,0.03254933,0.07030841,0.09943997
0,0,SanMarino,,,2021-07-21 03:50:05.473638,2020-07-12 00:00:00.000000,0.02034583,0.04243621,0.07611408,6,14,25,4,10,19,0.01461829,0.03128612,0.05682279,0.03258349,0.07057722,0.09962477
0,0,SanMarino,,,2021-07-21 03:50:05.473638,2020-07-13 00:00:00.000000,0.01828641,0.03874040,0.07153199,6,13,24,4,9,18,0.01317066,0.02879237,0.05364841,0.03282280,0.07091817,0.10164152
0,0,SanMarino,,,2021-07-21 03:50:05.473638,2020-07-14 00:00:00.000000,0.01643386,0.03533992,0.06734720,5,11,22,4,9,17,0.01185384,0.02656099,0.05059624,0.03388005,0.07166833,0.10178251
0,0,SanMarino,,,2021-07-21 03:50:05.473638,2020-07-15 00:00:00.000000,0.01476842,0.03222116,0.06346293,5,10,21,3,8,16,0.01066289,0.02447441,0.04771445,0.03516232,0.07073836,0.11484367
0,0,SanMarino,,,2021-07-21 03:50:05.473638,2020-07-16 00:00:00.000000,0.01327104,0.02936435,0.05968358,4,9,20,3,7,15,0.00965642,0.02253374,0.04500358,0.03524677,0.07132272,0.11975235
0,0,SanMarino,,,2021-07-21 03:50:05.473638,2020-07-17 00:00:00.000000,0.01192429,0.02678178,0.05578875,4,9,18,2,7,14,0.00880987,0.02064152,0.04245391,0.03491246,0.07179166,0.12057620
0,0,SanMarino,,,2021-07-21 03:50:05.473638,2020-07-18 00:00:00.000000,0.01089900,0.02454312,0.05241125,3,8,17,2,6,13,0.00804169,0.01907971,0.04005909,0.03472224,0.07472565,0.13266580
0,0,SanMarino,,,2021-07-21 03:50:05.473638,2020-07-19 00:00:00.000000,0.00997616,0.02246819,0.04923473,3,7,16,2,5,12,0.00735017,0.01744152,0.03782154,0.03468962,0.07592578,0.13551613
0,0,SanMarino,,,2021-07-21 03:50:05.473638,2020-07-20 00:00:00.000000,0.00917656,0.02063716,0.04625169,3,7,15,2,5,12,0.00672404,0.01600754,0.03566473,0.03602267,0.07790663,0.13653429
0,0,SanMarino,,,2021-07-21 03:50:05.473638,2020-07-21 00:00:00.000000,0.00849930,0.01889110,0.04345062,2,6,14,2,4,11,0.00615554,0.01456474,0.03352696,0.03703532,0.07766840,0.13788045
0,0,SanMarino,,,2021-07-21 03:50:05.473638,2020-07-22 00:00:00.000000,0.00788265,0.01729511,0.04091082,2,5,13,1,4,10,0.00563806,0.01328192,0.03151354,0.03749774,0.07724468,0.13824910
0,0,SanMarino,,,2021-07-21 03:50:05.473638,2020-07-23 00:00:00.000000,0.00731625,0.01583617,0.03935774,2,5,13,1,4,10,0.00518030,0.01216600,0.02961850,0.03823901,0.07855730,0.13838938
0,0,SanMarino,,,2021-07-21 03:50:05.473638,2020-07-24 00:00:00.000000,0.00679237,0.01451116,0.03790982,2,4,12,1,3,9,0.00480001,0.01114383,0.02783562,0.03975923,0.07837194,0.14170784
0,0,SanMarino,,,2021-07-21 03:50:05.473638,2020-07-25 00:00:00.000000,0.00611909,0.01341672,0.03653822,2,4,12,1,3,8,0.00445125,0.01020754,0.02615866,0.04158295,0.07990191,0.14624125
0,0,SanMarino,,,2021-07-21 03:50:05.473638,2020-07-26 00:00:00.000000,0.00551112,0.01229231,0.03523216,1,4,11,1,3,8,0.00403514,0.00934941,0.02458129,0.04270281,0.08119437,0.14639159
0,0,SanMarino,,,2021-07-21 03:50:05.473638,2020-07-27 00:00:00.000000,0.00503348,0.01135993,0.03399506,1,3,11,1,2,7,0.00366799,0.00859121,0.02328803,0.04314899,0.08170614,0.15143581
0,0,SanMarino,,,2021-07-21 03:50:05.473638,2020-07-28 00:00:00.000000,0.00464316,0.01049868,0.03285699,1,3,11,1,2,7,0.00337599,0.00791294,0.02241645,0.04332325,0.08441937,0.16493355
0,0,SanMarino,,,2021-07-21 03:50:05.473638,2020-07-29 00:00:00.000000,0.00428920,0.00965348,0.03184389,1,3,10,1,2,7,0.00311111,0.00728985,0.02160359,0.04344189,0.08703386,0.17041075
0,0,SanMarino,,,2021-07-21 03:50:05.473638,2020-07-30 00:00:00.000000,0.00397020,0.00895414,0.03091401,1,3,10,0,2,7,0.00287082,0.00669670,0.02085591,0.04360559,0.08960242,0.17448813
0,0,SanMarino,,,2021-07-21 03:50:05.473638,2020-07-31 00:00:00.000000,0.00363826,0.00832877,0.02992584,1,2,10,0,2,6,0.00265354,0.00612472,0.02016868,0.04388785,0.09302841,0.17738621
0,0,SanMarino,,,2021-07-21 03:50:05.473638,2020-08-01 00:00:00.000000,0.00323000,0.00774115,0.02872088,1,2,9,0,1,6,0.00245741,0.00565420,0.01953082,0.04437190,0.09439963,0.17961562
0,0,SanMarino,,,2021-07-21 03:50:05.473638,2020-08-02 00:00:00.000000,0.00286787,0.00717243,0.02760121,0,2,9,0,1,6,0.00218193,0.00517394,0.01893251,0.04515748,0.09589372,0.18032785
0,0,SanMarino,,,2021-07-21 03:50:05.473638,2020-08-03 00:00:00.000000,0.00660892,0.01209832,0.02837876,2,4,9,0,1,6,0.00193728,0.00476993,0.01836650,0.04631260,0.09832143,0.18089296
0,0,SanMarino,,,2021-07-21 03:50:05.473638,2020-08-04 00:00:00.000000,0.00840357,0.01602916,0.03419005,2,5,11,1,2,6,0.00325451,0.00636158,0.01809448,0.04775951,0.10019412,0.18192405
0,0,SanMarino,,,2021-07-21 03:50:05.473638,2020-08-05 00:00:00.000000,0.01008970,0.02069960,0.04628492,3,7,15,1,2,6,0.00441177,0.00823091,0.01904223,0.04862180,0.09922062,0.18292576
0,0,SanMarino,,,2021-07-21 03:50:05.473638,2020-08-06 00:00:00.000000,0.01066965,0.02439103,0.06068379,3,8,20,1,3,8,0.00523821,0.01025934,0.02424486,0.04926518,0.09971772,0.18240708
0,0,SanMarino,,,2021-07-21 03:50:05.473638,2020-08-07 00:00:00.000000,0.01163728,0.02866089,0.07443933,3,9,25,2,4,10,0.00617017,0.01238502,0.03093732,0.05043643,0.10059455,0.17934341
0,0,SanMarino,,,2021-07-21 03:50:05.473638,2020-08-08 00:00:00.000000,0.01310225,0.03222719,0.08737364,4,10,29,2,5,13,0.00716558,0.01475071,0.03946195,0.05106923,0.10094694,0.18398716
0,0,SanMarino,,,2021-07-21 03:50:05.473638,2020-08-09 00:00:00.000000,0.01449384,0.03496014,0.09942730,4,11,33,2,5,16,0.00787206,0.01701397,0.04762728,0.05198054,0.10451217,0.18545526
0,0,SanMarino,,,2021-07-21 03:50:05.473638,2020-08-10 00:00:00.000000,0.01989844,0.03910532,0.10225697,6,13,34,2,6,18,0.00828372,0.01901816,0.05532220,0.05267010,0.10638865,0.18579909
0,0,SanMarino,,,2021-07-21 03:50:05.473638,2020-08-11 00:00:00.000000,0.02342183,0.04295962,0.10133653,7,14,34,3,7,20,0.01037061,0.02179658,0.06082005,0.05286750,0.10680204,0.18487354
0,0,SanMarino,,,2021-07-21 03:50:05.473638,2020-08-12 00:00:00.000000,0.02552229,0.04667770,0.09972076,8,15,33,3,8,22,0.01133784,0.02414113,0.06496045,0.05285882,0.10726577,0.17880635
0,0,SanMarino,,,2021-07-21 03:50:05.473638,2020-08-13 00:00:00.000000,0.02586935,0.04932074,0.10979413,8,16,37,4,8,22,0.01360003,0.02582081,0.06571061,0.05283180,0.10920735,0.17578492
0,0,SanMarino,,,2021-07-21 03:50:05.473638,2020-08-14 00:00:00.000000,0.02617155,0.05358620,0.12239280,8,18,41,5,9,22,0.01584904,0.02781409,0.06521108,0.05273503,0.11428031,0.18189600
0,0,SanMarino,,,2021-07-21 03:50:05.473638,2020-08-15 00:00:00.000000,0.02644652,0.05706172,0.12869470,8,19,43,5,10,23,0.01608211,0.03062242,0.06941144,0.05237047,0.11752485,0.18146768
0,0,SanMarino,,,2021-07-21 03:50:05.473638,2020-08-16 00:00:00.000000,0.02670538,0.06013097,0.14170085,9,20,48,5,10,25,0.01628189,0.03209574,0.07588747,0.05215480,0.12118365,0.18473757
0,0,SanMarino,,,2021-07-21 03:50:05.473638,2020-08-17 00:00:00.000000,0.03708537,0.06619302,0.14455828,12,22,49,5,11,27,0.01646176,0.03382229,0.08168055,0.05333942,0.12245616,0.19408284
0,0,SanMarino,,,2021-07-21 03:50:05.473638,2020-08-18 00:00:00.000000,0.03771563,0.07021945,0.14579195,12,23,49,6,12,29,0.02020183,0.03631221,0.08656886,0.05366528,0.12432517,0.20592177
0,0,SanMarino,,,2021-07-21 03:50:05.473638,2020-08-19 00:00:00.000000,0.04289509,0.07627346,0.14662749,14,25,49,7,13,30,0.02176083,0.04061067,0.08968610,0.05504043,0.12468000,0.21229686
0,0,SanMarino,,,2021-07-21 03:50:05.473638,2020-08-20 00:00:00.000000,0.04568312,0.07967633,0.15046981,15,27,51,8,14,31,0.02436028,0.04398780,0.09154710,0.05912610,0.12668026,0.21918947
0,0,SanMarino,,,2021-07-21 03:50:05.473638,2020-08-21 00:00:00.000000,0.04846648,0.08235702,0.17490588,16,27,59,8,15,32,0.02600009,0.04590287,0.09604467,0.05929223,0.12608497,0.21791152
0,0,SanMarino,,,2021-07-21 03:50:05.473638,2020-08-22 00:00:00.000000,0.05101857,0.08552812,0.19832431,17,29,67,9,16,32,0.02765626,0.04733144,0.09452151,0.05963949,0.12908009,0.22738746
0,0,SanMarino,,,2021-07-21 03:50:05.473638,2020-08-23 00:00:00.000000,0.05297045,0.08737987,0.21724312,17,29,73,9,17,34,0.02931123,0.05018365,0.10166807,0.06037269,0.13187802,0.23614525
0,0,SanMarino,,,2021-07-21 03:50:05.473638,2020-08-24 00:00:00.000000,0.05947033,0.09937015,0.22154406,20,33,75,10,17,39,0.03094782,0.05248382,0.11569260,0.06149758,0.13558274,0.24272617
0,0,SanMarino,,,2021-07-21 03:50:05.473638,2020-08-25 00:00:00.000000,0.06324461,0.11210166,0.22129244,21,38,75,11,19,42,0.03324420,0.05671634,0.12400557,0.06270669,0.13782691,0.24719139
0,0,SanMarino,,,2021-07-21 03:50:05.473638,2020-08-26 00:00:00.000000,0.06698326,0.12109808,0.22223488,22,41,75,11,20,43,0.03523160,0.06116454,0.12855525,0.06361181,0.13885259,0.27077926
0,0,SanMarino,,,2021-07-21 03:50:05.473638,2020-08-27 00:00:00.000000,0.07042488,0.13284647,0.24099822,23,45,81,12,23,45,0.03732862,0.06796783,0.13455862,0.06766569,0.14165630,0.28042943
0,0,SanMarino,,,2021-07-21 03:50:05.473638,2020-08-28 00:00:00.000000,0.07393525,0.14305759,0.24599065,25,48,83,13,24,50,0.03945142,0.07264568,0.14910383,0.06823914,0.14314028,0.27491848
0,0,SanMarino,,,2021-07-21 03:50:05.473638,2020-08-29 00:00:00.000000,0.07753097,0.15492665,0.26955917,26,52,91,14,27,51,0.04150625,0.07986206,0.15030925,0.06903556,0.14495781,0.26813222
0,0,SanMarino,,,2021-07-21 03:50:05.473638,2020-08-30 00:00:00.000000,0.08136451,0.16373047,0.27223609,27,55,92,14,29,55,0.04358964,0.08720261,0.16258513,0.07130886,0.14689140,0.26068676
0,0,SanMarino,,,2021-07-21 03:50:05.473638,2020-08-31 00:00:00.000000,0.08371419,0.16432558,0.26694864,28,55,90,15,32,56,0.04572951,0.09454966,0.16788848,0.07081480,0.14981564,0.25582435
0,0,SanMarino,,,2021-07-21 03:50:05.473638,2020-09-01 00:00:00.000000,0.09002699,0.16240846,0.26149629,30,55,88,16,33,56,0.04808542,0.09863900,0.16654818,0.07167490,0.15253239,0.25637821
0,0,SanMarino,,,2021-07-21 03:50:05.473638,2020-09-02 00:00:00.000000,0.09457579,0.16107218,0.26039743,32,54,88,16,33,56,0.04964188,0.09960444,0.16724162,0.07267658,0.15610905,0.25612662
0,0,SanMarino,,,2021-07-21 03:50:05.473638,2020-09-03 00:00:00.000000,0.09721209,0.15747997,0.26072404,32,53,88,18,33,57,0.05315370,0.09970052,0.17036980,0.07486584,0.15689394,0.25476946
0,0,SanMarino,,,2021-07-21 03:50:05.473638,2020-09-04 00:00:00.000000,0.09834920,0.15621086,0.26064902,33,53,88,18,33,58,0.05579302,0.09851167,0.17229590,0.08140905,0.15801202,0.25103108
0,0,SanMarino,,,2021-07-21 03:50:05.473638,2020-09-05 00:00:00.000000,0.09836997,0.15645260,0.26549654,33,53,90,19,33,58,0.05850775,0.09725529,0.17342423,0.08518164,0.15995478,0.24928290
0,0,SanMarino,,,2021-07-21 03:50:05.473638,2020-09-06 00:00:00.000000,0.09843507,0.15638821,0.27380907,33,53,92,20,33,59,0.06112670,0.09793386,0.17397149,0.08928775,0.15988549,0.23556081
0,0,SanMarino,,,2021-07-21 03:50:05.473638,2020-09-07 00:00:00.000000,0.09993490,0.15448698,0.27547424,33,52,93,21,33,59,0.06243345,0.09739112,0.17401742,0.09318626,0.16245341,0.23824740
0,0,SanMarino,,,2021-07-21 03:50:05.473638,2020-09-08 00:00:00.000000,0.10145065,0.15468132,0.27951984,34,52,94,21,33,59,0.06401135,0.09740105,0.17531156,0.09673555,0.16901717,0.24400647
0,0,SanMarino,,,2021-07-21 03:50:05.473638,2020-09-09 00:00:00.000000,0.10300720,0.15476430,0.28366044,34,52,96,21,32,60,0.06453493,0.09601899,0.17726718,0.09774470,0.17335749,0.25893077
0,0,SanMarino,,,2021-07-21 03:50:05.473638,2020-09-10 00:00:00.000000,0.10223385,0.15242970,0.28776581,34,51,97,21,32,60,0.06461727,0.09552234,0.17959754,0.09803204,0.17611049,0.26019727
0,0,SanMarino,,,2021-07-21 03:50:05.473638,2020-09-11 00:00:00.000000,0.10015712,0.15540996,0.29001012,33,52,98,21,32,61,0.06456220,0.09497292,0.18220879,0.09930774,0.17950266,0.26161529
0,0,SanMarino,,,2021-07-21 03:50:05.473638,2020-09-12 00:00:00.000000,0.09835134,0.15616161,0.28690252,33,52,97,21,31,62,0.06415217,0.09345167,0.18511400,0.10384808,0.18326232,0.26109045
0,0,SanMarino,,,2021-07-21 03:50:05.473638,2020-09-13 00:00:00.000000,0.09681716,0.15628001,0.29294988,32,53,99,21,31,63,0.06311944,0.09293680,0.18833665,0.11061618,0.18768987,0.26521460
0,0,SanMarino,,,2021-07-21 03:50:05.473638,2020-09-14 00:00:00.000000,0.09901263,0.15731618,0.29824105,33,53,101,21,31,64,0.06216065,0.09356946,0.19049313,0.11790582,0.18999060,0.26353694
0,0,SanMarino,,,2021-07-21 03:50:05.473638,2020-09-15 00:00:00.000000,0.10025432,0.15892637,0.29685081,34,53,100,20,32,63,0.06184207,0.09456820,0.18668088,0.12345799,0.19126545,0.26635430
0,0,SanMarino,,,2021-07-21 03:50:05.473638,2020-09-16 00:00:00.000000,0.10331448,0.16094845,0.29452018,35,54,99,21,33,62,0.06207195,0.09738180,0.18300598,0.12656547,0.19927929,0.26714234
0,0,SanMarino,,,2021-07-21 03:50:05.473638,2020-09-17 00:00:00.000000,0.10762117,0.16180364,0.29517716,36,54,100,21,33,60,0.06443900,0.09772113,0.17963246,0.12813200,0.20528195,0.27556906
0,0,SanMarino,,,2021-07-21 03:50:05.473638,2020-09-18 00:00:00.000000,0.10799215,0.16486037,0.29318853,36,55,99,22,33,59,0.06679984,0.09900269,0.17671817,0.13336936,0.21637863,0.29156196
0,0,SanMarino,,,2021-07-21 03:50:05.473638,2020-09-19 00:00:00.000000,0.11008436,0.16909550,0.29219423,37,57,99,23,33,59,0.06835720,0.09965147,0.17466678,0.14482558,0.22252682,0.30640933
0,0,SanMarino,,,2021-07-21 03:50:05.473638,2020-09-20 00:00:00.000000,0.11285762,0.17030107,0.29169491,38,57,98,23,34,58,0.07004741,0.10232065,0.17344609,0.16200225,0.23504138,0.32578961
0,0,SanMarino,,,2021-07-21 03:50:05.473638,2020-09-21 00:00:00.000000,0.11539194,0.17436424,0.29177693,39,59,99,24,35,59,0.07109413,0.10558232,0.17566797,0.16489807,0.24029489,0.35152997
0,0,SanMarino,,,2021-07-21 03:50:05.473638,2020-09-22 00:00:00.000000,0.11804416,0.18266121,0.29463370,40,61,99,24,36,61,0.07279670,0.10785860,0.18127181,0.17527722,0.25601910,0.36779691
0,0,SanMarino,,,2021-07-21 03:50:05.473638,2020-09-23 00:00:00.000000,0.12262505,0.19076145,0.29892392,41,64,101,25,37,63,0.07421469,0.11030716,0.18652125,0.17588847,0.26281984,0.38312062
0,0,SanMarino,,,2021-07-21 03:50:05.473638,2020-09-24 00:00:00.000000,0.12605069,0.19801231,0.31027955,42,67,105,26,38,65,0.07661205,0.11412255,0.19170085,0.17636595,0.27160373,0.38657149
0,0,SanMarino,,,2021-07-21 03:50:05.473638,2020-09-25 00:00:00.000000,0.13010656,0.20634277,0.32585015,44,70,110,26,40,65,0.07888554,0.11964408,0.19297842,0.17719959,0.27880536,0.39664320
0,0,SanMarino,,,2021-07-21 03:50:05.473638,2020-09-26 00:00:00.000000,0.13595231,0.21363655,0.34202045,46,72,116,27,42,65,0.08165841,0.12421045,0.19363020,0.18011148,0.29094280,0.40730953
0,0,SanMarino,,,2021-07-21 03:50:05.473638,2020-09-27 00:00:00.000000,0.14202169,0.22165322,0.35878361,48,75,121,28,43,67,0.08500655,0.12798747,0.19954010,0.19360685,0.30352323,0.41699706
0,0,SanMarino,,,2021-07-21 03:50:05.473638,2020-09-28 00:00:00.000000,0.15300016,0.23436795,0.37783693,51,79,128,30,45,71,0.08859054,0.13260990,0.20938743,0.20680438,0.32373222,0.42466886
0,0,SanMarino,,,2021-07-21 03:50:05.473638,2020-09-29 00:00:00.000000,0.16430850,0.24810031,0.39749377,55,84,134,31,47,73,0.09315356,0.14003237,0.21795317,0.22507854,0.33750841,0.44188531
0,0,SanMarino,,,2021-07-21 03:50:05.473638,2020-09-30 00:00:00.000000,0.17504258,0.26453897,0.41784490,59,89,141,32,50,76,0.09714803,0.14766215,0.22608017,0.23502093,0.35255294,0.47225151
0,0,SanMarino,,,2021-07-21 03:50:05.473638,2020-10-01 00:00:00.000000,0.18352282,0.28293923,0.43878437,62,96,148,35,52,79,0.10349208,0.15399232,0.23441110,0.25582227,0.36822815,0.49115705
0,0,SanMarino,,,2021-07-21 03:50:05.473638,2020-10-02 00:00:00.000000,0.19272754,0.30386939,0.46062217,65,103,156,37,55,82,0.11165311,0.16244630,0.24451295,0.26728769,0.38206162,0.50041728
0,0,SanMarino,,,2021-07-21 03:50:05.473638,2020-10-03 00:00:00.000000,0.20249052,0.32733816,0.48428021,68,111,164,39,58,87,0.11692623,0.17284607,0.25848199,0.27430446,0.39321298,0.51991663
0,0,SanMarino,,,2021-07-21 03:50:05.473638,2020-10-04 00:00:00.000000,0.21306944,0.34708688,0.52044095,72,117,176,41,62,92,0.12263532,0.18468671,0.27291782,0.28262998,0.40641284,0.54083452
0,0,SanMarino,,,2021-07-21 03:50:05.473638,2020-10-05 00:00:00.000000,0.23462849,0.36578495,0.55750741,79,124,189,43,66,97,0.12885768,0.19679633,0.28783078,0.29952964,0.42227037,0.55955101
0,0,SanMarino,,,2021-07-21 03:50:05.473638,2020-10-06 00:00:00.000000,0.25804217,0.39121968,0.59710471,87,132,202,47,70,103,0.13889459,0.20920208,0.30495091,0.33025899,0.43240129,0.57380424
0,0,SanMarino,,,2021-07-21 03:50:05.473638,2020-10-07 00:00:00.000000,0.28402841,0.42157274,0.63888659,96,143,216,51,77,109,0.15152261,0.22804685,0.32392766,0.33351984,0.44979012,0.59448854
0,0,SanMarino,,,2021-07-21 03:50:05.473638,2020-10-08 00:00:00.000000,0.31062337,0.45251044,0.68305767,105,153,231,55,82,117,0.16254381,0.24389088,0.34500297,0.34034952,0.46687400,0.60410131
0,0,SanMarino,,,2021-07-21 03:50:05.473638,2020-10-09 00:00:00.000000,0.33658991,0.49082442,0.72779610,114,166,246,59,89,125,0.17422897,0.26399910,0.36926682,0.35505104,0.49514580,0.63833279
0,0,SanMarino,,,2021-07-21 03:50:05.473638,2020-10-10 00:00:00.000000,0.35210818,0.54158262,0.79374098,119,183,269,63,96,135,0.18753318,0.28514663,0.39830072,0.38427361,0.51450311,0.67668960
0,0,SanMarino,,,2021-07-21 03:50:05.473638,2020-10-11 00:00:00.000000,0.37814228,0.59753328,0.86922437,128,202,294,68,104,146,0.20299002,0.30825278,0.43293463,0.39090862,0.53359012,0.68737286
0,0,SanMarino,,,2021-07-21 03:50:05.473638,2020-10-12 00:00:00.000000,0.42024832,0.65790682,0.96265783,142,223,326,75,113,159,0.22121224,0.33583659,0.46991485,0.40248627,0.55973561,0.71506697
0,0,SanMarino,,,2021-07-21 03:50:05.473638,2020-10-13 00:00:00.000000,0.47959150,0.72594823,1.07209992,162,246,363,82,124,172,0.24322736,0.36592715,0.50846541,0.40372099,0.57216441,0.74793666
0,0,SanMarino,,,2021-07-21 03:50:05.473638,2020-10-14 00:00:00.000000,0.54998603,0.80443113,1.18023467,186,273,400,91,137,186,0.26976185,0.40439460,0.54877336,0.41546276,0.59222840,0.75505771
0,0,SanMarino,,,2021-07-21 03:50:05.473638,2020-10-15 00:00:00.000000,0.61485304,0.88524815,1.29791133,208,300,440,102,152,203,0.30136993,0.45078324,0.59861700,0.42789286,0.60955242,0.76833194
0,0,SanMarino,,,2021-07-21 03:50:05.473638,2020-10-16 00:00:00.000000,0.65496440,0.98354783,1.42703832,222,333,484,113,169,222,0.33323285,0.50030746,0.65568288,0.45185402,0.61535000,0.76872996
0,0,SanMarino,,,2021-07-21 03:50:05.473638,2020-10-17 00:00:00.000000,0.70649670,1.09251299,1.57105109,239,370,533,125,189,247,0.36873298,0.55755559,0.72992840,0.48209458,0.62807608,0.77959544
0,0,SanMarino,,,2021-07-21 03:50:05.473638,2020-10-18 00:00:00.000000,0.77269496,1.21975083,1.73851103,262,413,590,138,206,275,0.40895044,0.60943181,0.81208679,0.48635544,0.63683935,0.78094471
0,0,SanMarino,,,2021-07-21 03:50:05.473638,2020-10-19 00:00:00.000000,0.85165514,1.37329760,1.90784799,289,466,647,154,230,306,0.45527808,0.67954951,0.90281797,0.49126807,0.64350135,0.80020470
0,0,SanMarino,,,2021-07-21 03:50:05.473638,2020-10-20 00:00:00.000000,0.94206932,1.52561395,2.10099580,319,517,713,172,256,343,0.50896352,0.75527379,1.01074470,0.50380558,0.65883554,0.80963694
0,0,SanMarino,,,2021-07-21 03:50:05.473638,2020-10-21 00:00:00.000000,1.04327254,1.68454347,2.31247540,354,571,784,193,282,379,0.57079062,0.83380802,1.11960962,0.50527235,0.65866190,0.80786390
0,0,SanMarino,,,2021-07-21 03:50:05.473638,2020-10-22 00:00:00.000000,1.16680973,1.87120415,2.54266911,395,635,862,217,313,421,0.64127644,0.92375290,1.24340013,0.49393308,0.64623888,0.80650713
0,0,SanMarino,,,2021-07-21 03:50:05.473638,2020-10-23 00:00:00.000000,1.32369752,2.06302104,2.79944759,449,700,950,243,352,466,0.71671497,1.03998289,1.37439982,0.48971871,0.63456532,0.80803928
0,0,SanMarino,,,2021-07-21 03:50:05.473638,2020-10-24 00:00:00.000000,1.50290474,2.28436310,3.11427801,510,775,1056,269,396,519,0.79372471,1.16964544,1.53133926,0.48975046,0.62160965,0.81802446
0,0,SanMarino,,,2021-07-21 03:50:05.473638,2020-10-25 00:00:00.000000,1.70738937,2.52048879,3.40496266,579,855,1155,298,433,583,0.87952354,1.27817421,1.71804783,0.49680394,0.60157627,0.82580953
0,0,SanMarino,,,2021-07-21 03:50:05.473638,2020-10-26 00:00:00.000000,1.86586610,2.77471956,3.69843576,633,941,1255,331,480,647,0.97612324,1.41631502,1.90862299,0.49463698,0.59288740,0.80478797
0,0,SanMarino,,,2021-07-21 03:50:05.473638,2020-10-27 00:00:00.000000,2.04432664,3.05279995,3.98813505,693,1036,1353,370,529,710,1.09278577,1.56032927,2.09477772,0.46119710,0.57272136,0.78886926
0,0,SanMarino,,,2021-07-21 03:50:05.473638,2020-10-28 00:00:00.000000,2.21360831,3.29415246,4.33257126,751,1117,1470,410,580,773,1.20898072,1.70967081,2.27824739,0.44565782,0.55091782,0.75692621
0,0,SanMarino,,,2021-07-21 03:50:05.473638,2020-10-29 00:00:00.000000,2.42420757,3.53014864,4.70659374,822,1198,1597,450,631,836,1.32694274,1.86156678,2.46333568,0.41523039,0.52770585,0.71507709
0,0,SanMarino,,,2021-07-21 03:50:05.473638,2020-10-30 00:00:00.000000,2.66306670,3.77090400,5.08298557,903,1279,1725,481,686,900,1.42019504,2.02419554,2.65200000,0.39434786,0.50968303,0.66438326
0,0,SanMarino,,,2021-07-21 03:50:05.473638,2020-10-31 00:00:00.000000,2.89095830,4.02981167,5.44949670,981,1367,1849,524,736,960,1.54568207,2.16898495,2.82883591,0.36983207,0.48819919,0.64654389
0,0,SanMarino,,,2021-07-21 03:50:05.473638,2020-11-01 00:00:00.000000,3.17360468,4.28662439,5.66763839,1077,1454,1923,569,790,1009,1.67700631,2.32827399,2.97312621,0.35476785,0.46502691,0.59670615
0,0,SanMarino,,,2021-07-21 03:50:05.473638,2020-11-02 00:00:00.000000,3.32708361,4.49706357,5.88347434,1129,1526,1996,601,839,1079,1.77351593,2.47338393,3.18092041,0.34614792,0.44998273,0.57331290
0,0,SanMarino,,,2021-07-21 03:50:05.473638,2020-11-03 00:00:00.000000,3.48205695,4.74118573,6.11063811,1181,1609,2073,632,884,1143,1.86297364,2.60542423,3.37041401,0.34561224,0.43147110,0.56199010
0,0,SanMarino,,,2021-07-21 03:50:05.473638,2020-11-04 00:00:00.000000,3.63334018,4.96276530,6.45188952,1233,1684,2189,667,932,1191,1.96726795,2.74813364,3.51200187,0.34543755,0.41622756,0.55631202
0,0,SanMarino,,,2021-07-21 03:50:05.473638,2020-11-05 00:00:00.000000,3.88854662,5.14509115,6.64720457,1319,1746,2255,715,985,1237,2.10965880,2.90319860,3.64660183,0.33697098,0.40237317,0.54139504
0,0,SanMarino,,,2021-07-21 03:50:05.473638,2020-11-06 00:00:00.000000,4.15250244,5.29038755,6.91962147,1409,1795,2348,766,1025,1294,2.25982122,3.02059922,3.81421448,0.31565209,0.38773000,0.51795535
0,0,SanMarino,,,2021-07-21 03:50:05.473638,2020-11-07 00:00:00.000000,4.21383940,5.43227686,7.12778745,1430,1843,2419,800,1071,1360,2.35844372,3.15601110,4.00776977,0.29991691,0.37131979,0.48035917
0,0,SanMarino,,,2021-07-21 03:50:05.473638,2020-11-08 00:00:00.000000,4.25708505,5.54014602,7.17486406,1444,1880,2435,828,1103,1417,2.44204521,3.25109815,4.17761982,0.29494658,0.35350541,0.45209822
0,0,SanMarino,,,2021-07-21 03:50:05.473638,2020-11-09 00:00:00.000000,4.29086363,5.64698557,7.20260451,1456,1916,2444,854,1134,1465,2.51638388,3.34247800,4.31936576,0.27868195,0.34210026,0.42847342
0,0,SanMarino,,,2021-07-21 03:50:05.473638,2020-11-10 00:00:00.000000,4.32150094,5.71989148,7.25916965,1466,1941,2463,877,1157,1504,2.58632230,3.41136215,4.43361010,0.26904911,0.33006632,0.41642105
0,0,SanMarino,,,2021-07-21 03:50:05.473638,2020-11-11 00:00:00.000000,4.39368881,5.78014096,7.29323759,1491,1961,2475,894,1175,1534,2.63468578,3.46353311,4.52106319,0.26069976,0.32066305,0.40019353
0,0,SanMarino,,,2021-07-21 03:50:05.473638,2020-11-12 00:00:00.000000,4.46851315,5.75172157,7.28681024,1516,1952,2472,899,1190,1561,2.65001565,3.50875042,4.60075538,0.25206663,0.31559666,0.38717458
0,0,SanMarino,,,2021-07-21 03:50:05.473638,2020-11-13 00:00:00.000000,4.53460494,5.80474752,7.34059437,1538,1970,2491,903,1198,1615,2.66258626,3.53268122,4.75992001,0.23434232,0.30577059,0.37765930
0,0,SanMarino,,,2021-07-21 03:50:05.473638,2020-11-14 00:00:00.000000,4.57114449,5.81376036,7.51613324,1551,1973,2550,907,1205,1665,2.67256095,3.55308751,4.90845234,0.22475493,0.30102260,0.36226528
0,0,SanMarino,,,2021-07-21 03:50:05.473638,2020-11-15 00:00:00.000000,4.55148323,5.83735918,7.55190597,1544,1981,2562,909,1217,1712,2.67964961,3.58660706,5.04570179,0.21931227,0.29773569,0.36060932
0,0,SanMarino,,,2021-07-21 03:50:05.473638,2020-11-16 00:00:00.000000,4.52542766,5.81178807,7.47937862,1535,1972,2538,910,1216,1700,2.68328309,3.58503523,5.01007816,0.21602423,0.29119048,0.35036852
0,0,SanMarino,,,2021-07-21 03:50:05.473638,2020-11-17 00:00:00.000000,4.49029179,5.76065179,7.39512038,1523,1955,2509,911,1214,1679,2.68579848,3.57928902,4.94796630,0.21874597,0.28896785,0.35119240
0,0,SanMarino,,,2021-07-21 03:50:05.473638,2020-11-18 00:00:00.000000,4.40093426,5.73008685,7.39856095,1493,1944,2510,901,1212,1657,2.65687850,3.57308039,4.88272629,0.21484933,0.28615008,0.34815555
0,0,SanMarino,,,2021-07-21 03:50:05.473638,2020-11-19 00:00:00.000000,4.33575834,5.68799544,7.44581845,1471,1930,2526,895,1206,1636,2.63911348,3.55511992,4.82152047,0.21642808,0.28578563,0.34802853
0,0,SanMarino,,,2021-07-21 03:50:05.473638,2020-11-20 00:00:00.000000,4.31554188,5.64191174,7.34913239,1464,1914,2494,888,1200,1618,2.61824692,3.53715127,4.77008967,0.21960907,0.28425286,0.34556490
0,0,SanMarino,,,2021-07-21 03:50:05.473638,2020-11-21 00:00:00.000000,4.29494139,5.60323564,7.29306427,1457,1901,2475,881,1192,1605,2.59667498,3.51519130,4.73179347,0.22025506,0.28423857,0.34498639
0,0,SanMarino,,,2021-07-21 03:50:05.473638,2020-11-22 00:00:00.000000,4.25595478,5.51730570,7.26249012,1444,1872,2464,874,1185,1597,2.57653039,3.49378152,4.70634259,0.22407659,0.28358553,0.34828156
0,0,SanMarino,,,2021-07-21 03:50:05.473638,2020-11-23 00:00:00.000000,4.24398670,5.46822199,7.20764717,1440,1855,2446,868,1176,1591,2.55894267,3.46570265,4.68979183,0.22076518,0.28077180,0.35246063
0,0,SanMarino,,,2021-07-21 03:50:05.473638,2020-11-24 00:00:00.000000,4.24221115,5.39865648,7.15190109,1439,1832,2427,862,1165,1587,2.54080476,3.43408853,4.67768303,0.21984093,0.28244490,0.35835445
0,0,SanMarino,,,2021-07-21 03:50:05.473638,2020-11-25 00:00:00.000000,4.20078191,5.34067106,7.09176442,1425,1812,2406,856,1158,1583,2.52336822,3.41457371,4.66586098,0.22003115,0.27986068,0.36729171
0,0,SanMarino,,,2021-07-21 03:50:05.473638,2020-11-26 00:00:00.000000,4.17083014,5.26302812,6.98623217,1415,1786,2370,850,1150,1577,2.50662870,3.38896112,4.64918581,0.22138203,0.27992660,0.37024334
0,0,SanMarino,,,2021-07-21 03:50:05.473638,2020-11-27 00:00:00.000000,4.16162905,5.24388257,6.88108129,1412,1779,2335,845,1128,1568,2.49019143,3.32664144,4.62256718,0.23051245,0.28399109,0.37771829
0,0,SanMarino,,,2021-07-21 03:50:05.473638,2020-11-28 00:00:00.000000,4.11055721,5.19349431,6.78481108,1395,1762,2302,838,1115,1555,2.47203445,3.28595118,4.58190528,0.22961333,0.28689221,0.38733026
0,0,SanMarino,,,2021-07-21 03:50:05.473638,2020-11-29 00:00:00.000000,4.09139776,5.12041552,6.75452180,1388,1737,2292,833,1105,1547,2.45549572,3.25806630,4.56016878,0.23585168,0.28921549,0.38964246
0,0,SanMarino,,,2021-07-21 03:50:05.473638,2020-11-30 00:00:00.000000,4.05674904,5.07458527,6.81501186,1376,1722,2312,827,1092,1545,2.43779475,3.22000332,4.55493939,0.23512090,0.29130242,0.39131667
0,0,SanMarino,,,2021-07-21 03:50:05.473638,2020-12-01 00:00:00.000000,3.93956627,5.04597885,6.89333283,1337,1712,2339,822,1076,1537,2.42214195,3.17319389,4.52904107,0.23448072,0.29486867,0.39628753
0,0,SanMarino,,,2021-07-21 03:50:05.473638,2020-12-02 00:00:00.000000,3.89097711,5.03156063,6.97610079,1320,1707,2367,820,1072,1526,2.41633749,3.16112702,4.49739697,0.23468851,0.29964873,0.39863984
0,0,SanMarino,,,2021-07-21 03:50:05.473638,2020-12-03 00:00:00.000000,3.90410001,4.98594367,7.05741226,1324,1692,2395,816,1068,1523,2.40498656,3.14957151,4.48988146,0.23478727,0.30378926,0.40057493
0,0,SanMarino,,,2021-07-21 03:50:05.473638,2020-12-04 00:00:00.000000,3.92527112,4.94269763,6.99486702,1332,1677,2373,805,1056,1521,2.37294072,3.11342510,4.48236826,0.23384502,0.30856823,0.40306226
0,0,SanMarino,,,2021-07-21 03:50:05.473638,2020-12-05 00:00:00.000000,3.83359958,4.89877022,6.86320707,1301,1662,2329,804,1044,1524,2.37058402,3.07709228,4.49282855,0.24272827,0.30982072,0.40567202
0,0,SanMarino,,,2021-07-21 03:50:05.473638,2020-12-06 00:00:00.000000,3.73000816,4.90916483,6.73220343,1265,1666,2284,806,1031,1533,2.37591835,3.03995594,4.51872118,0.24721601,0.31282219,0.40769508
0,0,SanMarino,,,2021-07-21 03:50:05.473638,2020-12-07 00:00:00.000000,3.65319839,4.91910664,6.65213444,1239,1669,2257,804,1033,1545,2.37041006,3.04527469,4.55439253,0.25083274,0.31696726,0.40902809
0,0,SanMarino,,,2021-07-21 03:50:05.473638,2020-12-08 00:00:00.000000,3.67090670,4.88108895,6.73144624,1245,1656,2284,790,1038,1539,2.33040063,3.06110139,4.53598692,0.25060470,0.32950310,0.40978012
0,0,SanMarino,,,2021-07-21 03:50:05.473638,2020-12-09 00:00:00.000000,3.68860946,4.84698201,6.80771358,1251,1644,2310,774,1033,1533,2.28251235,3.04569843,4.51797957,0.25594263,0.33496986,0.41002552
0,0,SanMarino,,,2021-07-21 03:50:05.473638,2020-12-10 00:00:00.000000,3.68939415,4.80602710,6.87922382,1252,1631,2334,772,1018,1537,2.27637617,3.00086038,4.52908481,0.27134474,0.34205939,0.40931997
0,0,SanMarino,,,2021-07-21 03:50:05.473638,2020-12-11 00:00:00.000000,3.68457342,4.79527216,6.94120842,1250,1627,2355,775,1016,1540,2.28638048,2.99626181,4.53857811,0.27653338,0.34850134,0.41253882
0,0,SanMarino,,,2021-07-21 03:50:05.473638,2020-12-12 00:00:00.000000,3.70247994,4.84929612,6.97715509,1256,1645,2367,779,1003,1542,2.29608506,2.95645357,4.54610416,0.28071572,0.35738113,0.41409833
0,0,SanMarino,,,2021-07-21 03:50:05.473638,2020-12-13 00:00:00.000000,3.73458712,4.89909872,6.96409510,1267,1662,2363,782,989,1544,2.30510733,2.91570675,4.55098212,0.28588692,0.36282171,0.42902333
0,0,SanMarino,,,2021-07-21 03:50:05.473638,2020-12-14 00:00:00.000000,3.75432579,4.85148501,6.92193262,1274,1646,2349,783,986,1544,2.30832405,2.90638588,4.55080688,0.27317397,0.36985072,0.43930978
0,0,SanMarino,,,2021-07-21 03:50:05.473638,2020-12-15 00:00:00.000000,3.76090401,4.84654276,6.86489262,1276,1644,2329,774,990,1541,2.28337405,2.91964466,4.54187895,0.26607697,0.37253752,0.44051352
0,0,SanMarino,,,2021-07-21 03:50:05.473638,2020-12-16 00:00:00.000000,3.76577789,4.84699611,6.80104378,1278,1644,2308,768,1002,1535,2.26334841,2.95521147,4.52353521,0.26926407,0.37539903,0.44058894
0,0,SanMarino,,,2021-07-21 03:50:05.473638,2020-12-17 00:00:00.000000,3.76978798,4.86399898,6.73316690,1279,1650,2285,762,1004,1526,2.24630878,2.96119284,4.49780545,0.27722901,0.37824159,0.44839727
0,0,SanMarino,,,2021-07-21 03:50:05.473638,2020-12-18 00:00:00.000000,3.76375305,4.84562697,6.70499224,1277,1644,2275,765,1003,1515,2.25460604,2.95604205,4.46658008,0.28754473,0.38493805,0.46144948
0,0,SanMarino,,,2021-07-21 03:50:05.473638,2020-12-19 00:00:00.000000,3.75976514,4.89536823,6.90870295,1275,1661,2344,767,1009,1503,2.26051228,2.97451946,4.43135122,0.29522250,0.39115395,0.47099290
0,0,SanMarino,,,2021-07-21 03:50:05.473638,2020-12-20 00:00:00.000000,3.77268843,4.96968429,6.85731080,1280,1686,2327,761,1020,1491,2.24465662,3.00627044,4.39354678,0.29538990,0.39891577,0.47451146
0,0,SanMarino,,,2021-07-21 03:50:05.473638,2020-12-21 00:00:00.000000,3.80601128,5.03792326,6.80294211,1291,1709,2308,756,1034,1487,2.22808301,3.04834688,4.38165773,0.29125386,0.40906089,0.49089214
0,0,SanMarino,,,2021-07-21 03:50:05.473638,2020-12-22 00:00:00.000000,3.77306861,5.09376231,6.75259570,1280,1728,2291,763,1040,1529,2.24991256,3.06587444,4.50704893,0.29323421,0.41118747,0.49738368
0,0,SanMarino,,,2021-07-21 03:50:05.473638,2020-12-23 00:00:00.000000,3.82331877,5.10953069,6.70271020,1297,1734,2274,780,1052,1540,2.30097382,3.10242109,4.53903921,0.29982175,0.41071562,0.52248902
0,0,SanMarino,,,2021-07-21 03:50:05.473638,2020-12-24 00:00:00.000000,3.82153977,5.15516722,6.65231052,1296,1749,2257,789,1061,1529,2.32550201,3.12871798,4.50720707,0.31684236,0.41174270,0.51964273
0,0,SanMarino,,,2021-07-21 03:50:05.473638,2020-12-25 00:00:00.000000,3.83293780,5.15567252,6.60251957,1300,1749,2240,779,1069,1524,2.29613795,3.15115980,4.49148515,0.33334632,0.41034284,0.50842825
0,0,SanMarino,,,2021-07-21 03:50:05.473638,2020-12-26 00:00:00.000000,3.87815047,5.16790890,6.55466157,1316,1753,2224,789,1079,1524,2.32612323,3.18115914,4.49263409,0.33259726,0.40285408,0.48768400
0,0,SanMarino,,,2021-07-21 03:50:05.473638,2020-12-27 00:00:00.000000,3.93277427,5.17073796,6.50883143,1334,1754,2208,801,1074,1528,2.36142467,3.16598676,4.50508150,0.32323256,0.39752877,0.48992291
0,0,SanMarino,,,2021-07-21 03:50:05.473638,2020-12-28 00:00:00.000000,3.94096007,5.17589917,6.54646791,1337,1756,2221,810,1066,1535,2.38803019,3.14360750,4.52340260,0.31943342,0.39527986,0.49473829
0,0,SanMarino,,,2021-07-21 03:50:05.473638,2020-12-29 00:00:00.000000,3.93623661,5.13606220,6.59527107,1335,1743,2238,816,1063,1543,2.40601494,3.13219801,4.54930254,0.31647634,0.39312926,0.48619589
0,0,SanMarino,,,2021-07-21 03:50:05.473638,2020-12-30 00:00:00.000000,3.91048256,5.10375091,6.64034158,1327,1732,2253,820,1059,1553,2.41748351,3.12325388,4.57830877,0.31108985,0.38878341,0.49326233
0,0,SanMarino,,,2021-07-21 03:50:05.473638,2020-12-31 00:00:00.000000,3.91924971,5.08518530,6.68062159,1330,1725,2267,822,1055,1563,2.42305770,3.11052979,4.60782523,0.29893049,0.38294827,0.49310996
0,0,SanMarino,,,2021-07-21 03:50:05.473638,2021-01-01 00:00:00.000000,3.90667688,5.05745995,6.71614660,1325,1716,2279,822,1049,1573,2.42305289,3.09315453,4.63622923,0.29526913,0.37295426,0.46914057
0,0,SanMarino,,,2021-07-21 03:50:05.473638,2021-01-02 00:00:00.000000,3.89266247,4.99264561,6.74677386,1321,1694,2289,820,1050,1582,2.41810801,3.09681745,4.66264596,0.28814623,0.37210223,0.47179428
0,0,SanMarino,,,2021-07-21 03:50:05.473638,2021-01-03 00:00:00.000000,3.87529476,4.95750024,6.77171097,1315,1682,2298,812,1043,1590,2.39322956,3.07437285,4.68654972,0.27880013,0.36545284,0.44495604
0,0,SanMarino,,,2021-07-21 03:50:05.473638,2021-01-04 00:00:00.000000,3.84884840,4.90714717,6.76385597,1306,1665,2295,813,1030,1587,2.39624132,3.03619976,4.67677688,0.27229325,0.36901339,0.42980414
0,0,SanMarino,,,2021-07-21 03:50:05.473638,2021-01-05 00:00:00.000000,3.79227839,4.82612840,6.74136433,1287,1637,2287,808,1021,1561,2.38276228,3.00965357,4.60153548,0.27124707,0.36103339,0.42672401
0,0,SanMarino,,,2021-07-21 03:50:05.473638,2021-01-06 00:00:00.000000,3.73098408,4.74109649,6.66660906,1266,1609,2262,800,1010,1534,2.36005504,2.97718528,4.52103763,0.27095132,0.35792557,0.42424968
0,0,SanMarino,,,2021-07-21 03:50:05.473638,2021-01-07 00:00:00.000000,3.66520399,4.68256973,6.50792401,1243,1589,2208,792,1004,1505,2.33539046,2.96050162,4.43518133,0.26527740,0.35494296,0.42090024
0,0,SanMarino,,,2021-07-21 03:50:05.473638,2021-01-08 00:00:00.000000,3.59380172,4.60751033,6.34015597,1219,1563,2151,783,986,1474,2.30872141,2.90635277,4.34332709,0.26062715,0.34799951,0.42146413
0,0,SanMarino,,,2021-07-21 03:50:05.473638,2021-01-09 00:00:00.000000,3.51695492,4.50148787,6.16650202,1193,1527,2092,769,972,1440,2.26676735,2.86586169,4.24414211,0.25852993,0.34178727,0.42203952
0,0,SanMarino,,,2021-07-21 03:50:05.473638,2021-01-10 00:00:00.000000,3.43613514,4.36678609,5.99160180,1166,1481,2033,753,957,1405,2.22108891,2.82123687,4.14047559,0.25670768,0.34002869,0.42366252
0,0,SanMarino,,,2021-07-21 03:50:05.473638,2021-01-11 00:00:00.000000,3.33452928,4.25334694,5.85085391,1131,1443,1985,734,938,1368,2.16479070,2.76641469,4.03372717,0.25194899,0.33958378,0.41883676
0,0,SanMarino,,,2021-07-21 03:50:05.473638,2021-01-12 00:00:00.000000,3.23222605,4.18866123,5.81959058,1096,1421,1975,717,918,1349,2.11521351,2.70657516,3.97660405,0.25062675,0.34137213,0.41881361
0,0,SanMarino,,,2021-07-21 03:50:05.473638,2021-01-13 00:00:00.000000,3.10615448,4.12194724,5.77237692,1054,1398,1959,696,897,1339,2.05357565,2.64586053,3.94774527,0.25040340,0.34132988,0.41900025
0,0,SanMarino,,,2021-07-21 03:50:05.473638,2021-01-14 00:00:00.000000,3.02023505,3.99510268,5.65457917,1025,1355,1919,675,879,1305,1.99037939,2.59260731,3.84735811,0.25038353,0.34311216,0.42478385
0,0,SanMarino,,,2021-07-21 03:50:05.473638,2021-01-15 00:00:00.000000,2.93567312,3.88138117,5.56198389,996,1317,1887,654,867,1273,1.92720760,2.55680609,3.75112961,0.25138998,0.34545393,0.42028378
0,0,SanMarino,,,2021-07-21 03:50:05.473638,2021-01-16 00:00:00.000000,2.88325287,3.78527491,5.47824865,978,1284,1859,636,852,1282,1.87650301,2.51291625,3.77833171,0.26345574,0.35206579,0.42377634
0,0,SanMarino,,,2021-07-21 03:50:05.473638,2021-01-17 00:00:00.000000,2.83308568,3.73703510,5.39180402,961,1268,1829,621,837,1292,1.83068745,2.46777401,3.80982786,0.28045667,0.35901280,0.44764973
0,0,SanMarino,,,2021-07-21 03:50:05.473638,2021-01-18 00:00:00.000000,2.78645308,3.69989250,5.31078330,945,1255,1802,608,818,1287,1.79326490,2.41274065,3.79367203,0.28259511,0.36882339,0.46558838
0,0,SanMarino,,,2021-07-21 03:50:05.473638,2021-01-19 00:00:00.000000,2.74501634,3.65329544,5.23500986,931,1239,1776,601,799,1266,1.77132711,2.35676591,3.73046566,0.28958654,0.37736228,0.47122727
0,0,SanMarino,,,2021-07-21 03:50:05.473638,2021-01-20 00:00:00.000000,2.72858068,3.60579876,5.17863274,926,1223,1757,595,785,1238,1.75325963,2.31324734,3.65049793,0.29252107,0.37972972,0.48192992
0,0,SanMarino,,,2021-07-21 03:50:05.473638,2021-01-21 00:00:00.000000,2.72804655,3.55028270,5.14972019,925,1204,1747,585,772,1213,1.72633730,2.27652095,3.57432791,0.29473384,0.38974130,0.48944146
0,0,SanMarino,,,2021-07-21 03:50:05.473638,2021-01-22 00:00:00.000000,2.74028387,3.52408214,5.13400189,929,1196,1742,575,760,1188,1.69597924,2.24183393,3.50113968,0.30667450,0.40062853,0.52035164
0,0,SanMarino,,,2021-07-21 03:50:05.473638,2021-01-23 00:00:00.000000,2.74377536,3.47078198,5.12080186,931,1177,1737,567,748,1165,1.67095745,2.20512201,3.43312791,0.31318617,0.40757021,0.54021307
0,0,SanMarino,,,2021-07-21 03:50:05.473638,2021-01-24 00:00:00.000000,2.70371812,3.44850255,5.10683250,917,1170,1733,559,738,1147,1.64999625,2.17493953,3.38171572,0.32208533,0.42514566,0.54953575
0,0,SanMarino,,,2021-07-21 03:50:05.473638,2021-01-25 00:00:00.000000,2.66683817,3.47923391,5.08554653,905,1180,1725,556,726,1136,1.63916578,2.14008783,3.34884764,0.33116598,0.43522521,0.56168385
0,0,SanMarino,,,2021-07-21 03:50:05.473638,2021-01-26 00:00:00.000000,2.65738373,3.46377625,5.06198038,901,1175,1717,548,720,1129,1.61683460,2.12254716,3.32836947,0.34096550,0.45188191,0.56579443
0,0,SanMarino,,,2021-07-21 03:50:05.473638,2021-01-27 00:00:00.000000,2.67707516,3.47797258,5.03575266,908,1180,1709,544,721,1124,1.60479858,2.12701001,3.31460698,0.36000273,0.46504452,0.57087063
0,0,SanMarino,,,2021-07-21 03:50:05.473638,2021-01-28 00:00:00.000000,2.70814612,3.48110638,5.00679384,919,1181,1699,541,720,1121,1.59635455,2.12332331,3.30444363,0.36519327,0.48011005,0.58583767
0,0,SanMarino,,,2021-07-21 03:50:05.473638,2021-01-29 00:00:00.000000,2.69278651,3.48538319,4.97505156,913,1182,1688,542,723,1118,1.59786222,2.13325470,3.29666279,0.37203998,0.48723449,0.60674157
0,0,SanMarino,,,2021-07-21 03:50:05.473638,2021-01-30 00:00:00.000000,2.67755722,3.49423848,4.94045448,908,1185,1676,545,726,1117,1.60597900,2.14092074,3.29185433,0.38299487,0.49987294,0.64178139
0,0,SanMarino,,,2021-07-21 03:50:05.473638,2021-01-31 00:00:00.000000,2.66420684,3.51371104,4.95776955,904,1192,1682,550,729,1117,1.62244646,2.14942860,3.29277651,0.36783981,0.51161217,0.64554213
0,0,SanMarino,,,2021-07-21 03:50:05.473638,2021-02-01 00:00:00.000000,2.64797491,3.53577483,5.02425146,898,1199,1705,552,733,1121,1.62915409,2.16037051,3.30397428,0.35441794,0.52577006,0.64598362
0,0,SanMarino,,,2021-07-21 03:50:05.473638,2021-02-02 00:00:00.000000,2.63629449,3.58075270,5.07943903,894,1215,1723,552,738,1130,1.62682006,2.17550257,3.33002678,0.35872722,0.54430507,0.65896295
0,0,SanMarino,,,2021-07-21 03:50:05.473638,2021-02-03 00:00:00.000000,2.65179113,3.61368845,5.11360915,899,1226,1735,553,740,1143,1.62993704,2.18084763,3.36921674,0.35763269,0.55127199,0.66841306
0,0,SanMarino,,,2021-07-21 03:50:05.473638,2021-02-04 00:00:00.000000,2.68424309,3.64824031,5.23417206,910,1238,1776,557,746,1158,1.64156814,2.19965852,3.41414898,0.36971377,0.57165706,0.67857370
0,0,SanMarino,,,2021-07-21 03:50:05.473638,2021-02-05 00:00:00.000000,2.73258321,3.68029185,5.30484321,927,1249,1800,562,756,1140,1.65886886,2.22798074,3.36104474,0.39188032,0.57750642,0.71352711
0,0,SanMarino,,,2021-07-21 03:50:05.473638,2021-02-06 00:00:00.000000,2.79514805,3.74790204,5.27421487,948,1271,1789,571,761,1129,1.68327536,2.24439792,3.32818743,0.40632921,0.58338328,0.72352462
0,0,SanMarino,,,2021-07-21 03:50:05.473638,2021-02-07 00:00:00.000000,2.87072928,3.81102421,5.16814331,974,1293,1753,582,772,1156,1.71579707,2.27666789,3.40630437,0.41837263,0.60050674,0.75563026
0,0,SanMarino,,,2021-07-21 03:50:05.473638,2021-02-08 00:00:00.000000,2.92747657,3.88929762,5.23065810,993,1319,1775,596,781,1172,1.75646402,2.30343719,3.45567992,0.41812192,0.61077063,0.76067772
0,0,SanMarino,,,2021-07-21 03:50:05.473638,2021-02-09 00:00:00.000000,2.99012457,3.98408520,5.33911127,1014,1352,1811,610,790,1149,1.79945637,2.32936234,3.38796032,0.42529637,0.61492015,0.76216060
0,0,SanMarino,,,2021-07-21 03:50:05.473638,2021-02-10 00:00:00.000000,3.06540512,4.07917069,5.44172932,1040,1384,1846,626,797,1126,1.84574822,2.34961211,3.32016427,0.44631141,0.62269230,0.79845967
0,0,SanMarino,,,2021-07-21 03:50:05.473638,2021-02-11 00:00:00.000000,3.15494126,4.15895344,5.53811057,1070,1411,1879,643,819,1136,1.89500429,2.41503722,3.34753688,0.48297111,0.62596634,0.80846905
0,0,SanMarino,,,2021-07-21 03:50:05.473638,2021-02-12 00:00:00.000000,3.25728678,4.24559038,5.62841153,1105,1440,1910,658,839,1146,1.93966534,2.47415578,3.37764821,0.51200995,0.63637736,0.82631987
0,0,SanMarino,,,2021-07-21 03:50:05.473638,2021-02-13 00:00:00.000000,3.36445908,4.32102063,5.71308559,1141,1466,1938,663,852,1159,1.95574897,2.51227977,3.41714971,0.52280728,0.65667777,0.81759420
0,0,SanMarino,,,2021-07-21 03:50:05.473638,2021-02-14 00:00:00.000000,3.45042691,4.35719130,5.77223610,1171,1478,1958,672,861,1177,1.98250337,2.53741322,3.46899589,0.52836818,0.66631445,0.83677257
0,0,SanMarino,,,2021-07-21 03:50:05.473638,2021-02-15 00:00:00.000000,3.53492878,4.43254835,5.83974464,1199,1504,1981,687,871,1195,2.02432590,2.56836829,3.52148083,0.53364025,0.66763181,0.88970087
0,0,SanMarino,,,2021-07-21 03:50:05.473638,2021-02-16 00:00:00.000000,3.60841584,4.53304694,5.91765055,1224,1538,2008,701,889,1226,2.06598512,2.62115303,3.61525114,0.52609314,0.67023437,0.92303798
0,0,SanMarino,,,2021-07-21 03:50:05.473638,2021-02-17 00:00:00.000000,3.66827679,4.65161568,6.04652640,1244,1578,2052,715,907,1256,2.10742562,2.67410050,3.70135996,0.52663637,0.68365579,0.93628272
0,0,SanMarino,,,2021-07-21 03:50:05.473638,2021-02-18 00:00:00.000000,3.73488938,4.74191592,6.14226387,1267,1609,2084,736,930,1282,2.17058904,2.74156214,3.78022448,0.54186049,0.69041300,0.93539226
0,0,SanMarino,,,2021-07-21 03:50:05.473638,2021-02-19 00:00:00.000000,3.76649924,4.80770040,6.24660349,1278,1631,2119,761,947,1307,2.24368303,2.79188940,3.85219666,0.54198301,0.70715081,0.93041284
0,0,SanMarino,,,2021-07-21 03:50:05.473638,2021-02-20 00:00:00.000000,3.81790336,4.88619729,6.40407241,1295,1658,2173,779,966,1329,2.29821979,2.84658003,3.91724245,0.55789598,0.71211404,0.91844369
0,0,SanMarino,,,2021-07-21 03:50:05.473638,2021-02-21 00:00:00.000000,3.85188098,4.95658649,6.59090130,1307,1682,2236,796,991,1348,2.34735811,2.92037400,3.97454494,0.57055320,0.72135394,0.95655609
0,0,SanMarino,,,2021-07-21 03:50:05.473638,2021-02-22 00:00:00.000000,3.89337409,5.07568392,6.73286583,1321,1722,2285,809,1012,1365,2.38620507,2.98253170,4.02258298,0.56628880,0.72817487,0.94672038
0,0,SanMarino,,,2021-07-21 03:50:05.473638,2021-02-23 00:00:00.000000,4.01851672,5.17271179,6.81788027,1363,1755,2313,820,1035,1380,2.41650486,3.05024098,4.06918155,0.56649372,0.73252597,0.93819477
0,0,SanMarino,,,2021-07-21 03:50:05.473638,2021-02-24 00:00:00.000000,4.09127953,5.26618956,7.02861461,1388,1787,2385,831,1058,1414,2.45105008,3.11907799,4.16870489,0.56212470,0.73555691,0.96774509
0,0,SanMarino,,,2021-07-21 03:50:05.473638,2021-02-25 00:00:00.000000,4.16341714,5.36237786,7.23354099,1412,1819,2454,850,1081,1455,2.50551685,3.18811044,4.28998044,0.56713716,0.74487820,1.00264466
0,0,SanMarino,,,2021-07-21 03:50:05.473638,2021-02-26 00:00:00.000000,4.19282144,5.46686015,7.23031157,1422,1855,2453,858,1102,1487,2.52931066,3.24800612,4.38287726,0.58202363,0.73277311,1.02931321
0,0,SanMarino,,,2021-07-21 03:50:05.473638,2021-02-27 00:00:00.000000,4.18460108,5.59217042,7.20502268,1420,1897,2445,884,1126,1522,2.60562108,3.31852203,4.48481418,0.60109942,0.75574312,1.04338940
0,0,SanMarino,,,2021-07-21 03:50:05.473638,2021-02-28 00:00:00.000000,4.17525876,5.70126161,7.25233915,1416,1934,2461,888,1148,1555,2.61888398,3.38547212,4.58456123,0.60096471,0.76413040,1.04238197
0,0,SanMarino,,,2021-07-21 03:50:05.473638,2021-03-01 00:00:00.000000,4.14610614,5.83383121,7.41404844,1407,1979,2516,891,1176,1589,2.62815537,3.46624663,4.68476592,0.60154182,0.76769464,1.04268045
0,0,SanMarino,,,2021-07-21 03:50:05.473638,2021-03-02 00:00:00.000000,4.17624141,5.94463895,7.56521854,1417,2017,2567,898,1197,1623,2.64822590,3.52851732,4.78471799,0.62187738,0.76988333,1.06352804
0,0,SanMarino,,,2021-07-21 03:50:05.473638,2021-03-03 00:00:00.000000,4.28907214,6.01891740,7.70402202,1455,2042,2614,904,1220,1656,2.66639179,3.59751324,4.88226273,0.63234298,0.77419767,1.06991569
0,0,SanMarino,,,2021-07-21 03:50:05.473638,2021-03-04 00:00:00.000000,4.41465437,6.12674608,7.85857124,1498,2079,2667,916,1241,1688,2.70093661,3.65883983,4.97490365,0.65921417,0.79120020,1.07345352
0,0,SanMarino,,,2021-07-21 03:50:05.473638,2021-03-05 00:00:00.000000,4.53872877,6.23218715,8.02536790,1540,2115,2723,926,1264,1714,2.73069810,3.72509803,5.05148458,0.67130909,0.81223412,1.06262837
0,0,SanMarino,,,2021-07-21 03:50:05.473638,2021-03-06 00:00:00.000000,4.60682453,6.34893245,8.17689782,1563,2154,2775,948,1276,1731,2.79622670,3.76109452,5.10307262,0.68255245,0.84152019,1.07025897
0,0,SanMarino,,,2021-07-21 03:50:05.473638,2021-03-07 00:00:00.000000,4.64393188,6.41904435,8.31194873,1576,2178,2820,968,1289,1746,2.85350840,3.79949691,5.14556878,0.70048738,0.85810871,1.09945521
0,0,SanMarino,,,2021-07-21 03:50:05.473638,2021-03-08 00:00:00.000000,4.81398472,6.50197424,8.42457876,1633,2206,2859,975,1309,1758,2.87529962,3.85713583,5.18047236,0.72618141,0.89853055,1.12095215
0,0,SanMarino,,,2021-07-21 03:50:05.473638,2021-03-09 00:00:00.000000,4.93694402,6.58972942,8.52127741,1675,2236,2891,984,1327,1767,2.90138398,3.91102701,5.20767700,0.73041926,0.90153607,1.22817749
0,0,SanMarino,,,2021-07-21 03:50:05.473638,2021-03-10 00:00:00.000000,5.00051608,6.61663200,8.60049213,1697,2245,2918,996,1336,1781,2.93580605,3.93777828,5.24844116,0.74619514,0.89914319,1.23685925
0,0,SanMarino,,,2021-07-21 03:50:05.473638,2021-03-11 00:00:00.000000,5.05704336,6.69714987,8.65603304,1716,2272,2937,1012,1345,1791,2.98435049,3.96454208,5.27929697,0.76808539,0.91554297,1.22435074
0,0,SanMarino,,,2021-07-21 03:50:05.473638,2021-03-12 00:00:00.000000,5.10577794,6.80435869,8.69053509,1732,2309,2949,1036,1361,1808,3.05383628,4.01300424,5.32749811,0.77179038,0.93775229,1.18855653
0,0,SanMarino,,,2021-07-21 03:50:05.473638,2021-03-13 00:00:00.000000,5.14751011,6.89913507,8.70435947,1746,2341,2954,1057,1379,1836,3.11500497,4.06369485,5.41176564,0.76991366,0.94830422,1.24485726
0,0,SanMarino,,,2021-07-21 03:50:05.473638,2021-03-14 00:00:00.000000,5.28187020,6.91954984,8.67391616,1792,2348,2943,1070,1388,1849,3.15487925,4.09093036,5.45015207,0.76956480,0.97203697,1.21440602
0,0,SanMarino,,,2021-07-21 03:50:05.473638,2021-03-15 00:00:00.000000,5.40940766,6.91442501,8.60722208,1835,2346,2921,1083,1392,1878,3.19200976,4.10446595,5.53397567,0.77345594,0.97686729,1.23750555
0,0,SanMarino,,,2021-07-21 03:50:05.473638,2021-03-16 00:00:00.000000,5.44942858,6.93675728,8.52431083,1849,2354,2892,1094,1398,1891,3.22522256,4.12199867,5.57397100,0.78450443,0.97393222,1.24574546
0,0,SanMarino,,,2021-07-21 03:50:05.473638,2021-03-17 00:00:00.000000,5.47121921,6.93431889,8.46641171,1856,2353,2873,1106,1399,1900,3.26028460,4.12324259,5.59917794,0.79930575,0.98214663,1.25827135
0,0,SanMarino,,,2021-07-21 03:50:05.473638,2021-03-18 00:00:00.000000,5.46745453,6.91389726,8.48897332,1855,2346,2880,1112,1398,1899,3.27736798,4.12111060,5.59675396,0.80099065,0.97875384,1.26502639
0,0,SanMarino,,,2021-07-21 03:50:05.473638,2021-03-19 00:00:00.000000,5.45284520,6.87410688,8.39314919,1850,2332,2848,1115,1397,1887,3.28598612,4.11642507,5.56234163,0.80356497,0.98171338,1.26465926
0,0,SanMarino,,,2021-07-21 03:50:05.473638,2021-03-20 00:00:00.000000,5.42359758,6.81555401,8.28041376,1840,2313,2810,1114,1396,1872,3.28411533,4.11491539,5.51595752,0.79319538,0.97158799,1.24737644
0,0,SanMarino,,,2021-07-21 03:50:05.473638,2021-03-21 00:00:00.000000,5.38891274,6.79176526,8.20599654,1828,2304,2784,1111,1395,1852,3.27601692,4.11328513,5.45810235,0.80793872,0.96477205,1.23807674
0,0,SanMarino,,,2021-07-21 03:50:05.473638,2021-03-22 00:00:00.000000,5.38398693,6.75766809,8.15346132,1827,2293,2767,1107,1395,1829,3.26220297,4.11158038,5.38938896,0.78459210,0.95267334,1.23421659
0,0,SanMarino,,,2021-07-21 03:50:05.473638,2021-03-23 00:00:00.000000,5.35036655,6.70387542,8.08524730,1815,2275,2743,1100,1385,1818,3.24257316,4.08289510,5.35689787,0.78401155,0.94108530,1.21589406
0,0,SanMarino,,,2021-07-21 03:50:05.473638,2021-03-24 00:00:00.000000,5.28757336,6.62626134,8.00174681,1794,2248,2715,1091,1380,1802,3.21734371,4.06900133,5.31194193,0.77122127,0.93167408,1.18287825
0,0,SanMarino,,,2021-07-21 03:50:05.473638,2021-03-25 00:00:00.000000,5.21531566,6.52092944,7.94278275,1769,2213,2695,1085,1379,1783,3.19778981,4.06448880,5.25573390,0.75547970,0.92131636,1.16538815
0,0,SanMarino,,,2021-07-21 03:50:05.473638,2021-03-26 00:00:00.000000,5.13456883,6.36095729,7.91729403,1742,2158,2686,1076,1368,1773,3.17255154,4.03112893,5.22477191,0.72026035,0.92261904,1.14395542
0,0,SanMarino,,,2021-07-21 03:50:05.473638,2021-03-27 00:00:00.000000,5.04620791,6.21823762,7.87515262,1712,2110,2672,1066,1349,1762,3.14194725,3.97539137,5.19355963,0.68928245,0.90823358,1.11589973
0,0,SanMarino,,,2021-07-21 03:50:05.473638,2021-03-28 00:00:00.000000,4.95093617,6.06772818,7.80579564,1680,2059,2649,1046,1331,1748,3.08277084,3.92352391,5.15272048,0.63733301,0.88764137,1.10886700
0,0,SanMarino,,,2021-07-21 03:50:05.473638,2021-03-29 00:00:00.000000,4.85793604,5.87950786,7.69601559,1648,1995,2611,1023,1304,1731,3.01529825,3.84385565,5.10247641,0.59988507,0.86922875,1.09716485
0,0,SanMarino,,,2021-07-21 03:50:05.473638,2021-03-30 00:00:00.000000,4.72754839,5.69443239,7.52786940,1604,1932,2554,999,1277,1711,2.94524576,3.76327571,5.04240520,0.58753744,0.84057118,1.08683311
0,0,SanMarino,,,2021-07-21 03:50:05.473638,2021-03-31 00:00:00.000000,4.58424160,5.46540203,7.34378001,1555,1854,2492,969,1238,1687,2.85560567,3.64910589,4.97344002,0.56604422,0.80550691,1.05953534
0,0,SanMarino,,,2021-07-21 03:50:05.473638,2021-04-01 00:00:00.000000,4.42909350,5.25315566,7.13860039,1503,1782,2422,939,1189,1661,2.76698883,3.50579983,4.89637877,0.55178902,0.77675240,1.01049983
0,0,SanMarino,,,2021-07-21 03:50:05.473638,2021-04-02 00:00:00.000000,4.25027649,5.03232106,6.87565138,1442,1707,2333,912,1147,1620,2.68762128,3.37993139,4.77427259,0.49575303,0.73945953,0.99117444
0,0,SanMarino,,,2021-07-21 03:50:05.473638,2021-04-03 00:00:00.000000,4.06925192,4.79371096,6.58611001,1381,1626,2235,883,1105,1564,2.60449884,3.25638003,4.60964771,0.44467317,0.71575159,0.94977511
0,0,SanMarino,,,2021-07-21 03:50:05.473638,2021-04-04 00:00:00.000000,3.89111721,4.57432911,6.34949857,1320,1552,2154,851,1063,1503,2.50782286,3.13370140,4.42920448,0.42799828,0.66754521,0.97565536
0,0,SanMarino,,,2021-07-21 03:50:05.473638,2021-04-05 00:00:00.000000,3.66186606,4.35825034,6.09204444,1242,1479,2067,812,1023,1439,2.39321957,3.01541109,4.24124830,0.40903089,0.62377262,0.96282850
0,0,SanMarino,,,2021-07-21 03:50:05.473638,2021-04-06 00:00:00.000000,3.43845494,4.12269502,5.79851781,1166,1399,1967,768,974,1393,2.26333316,2.87274960,4.10733831,0.40776213,0.56771451,0.89986631
0,0,SanMarino,,,2021-07-21 03:50:05.473638,2021-04-07 00:00:00.000000,3.21545139,3.88563059,5.48198948,1091,1318,1860,720,929,1341,2.12242434,2.73936152,3.95357234,0.40426303,0.54416110,0.87798537
0,0,SanMarino,,,2021-07-21 03:50:05.473638,2021-04-08 00:00:00.000000,2.98342866,3.64860545,5.19635604,1012,1238,1763,676,879,1285,1.99356553,2.59151113,3.78774706,0.35531891,0.51479158,0.87509421
0,0,SanMarino,,,2021-07-21 03:50:05.473638,2021-04-09 00:00:00.000000,2.72690346,3.42268159,4.97463356,925,1161,1688,633,829,1231,1.86541505,2.44387789,3.62856487,0.30016523,0.48249206,0.83497142
0,0,SanMarino,,,2021-07-21 03:50:05.473638,2021-04-10 00:00:00.000000,2.48838374,3.17962908,4.69535803,844,1079,1593,585,778,1185,1.72547891,2.29273515,3.49342076,0.28677930,0.45573254,0.80221579
0,0,SanMarino,,,2021-07-21 03:50:05.473638,2021-04-11 00:00:00.000000,2.26807991,2.96610987,4.42343844,769,1006,1501,540,726,1139,1.59287456,2.14143182,3.35685281,0.26612891,0.44029378,0.78905451
0,0,SanMarino,,,2021-07-21 03:50:05.473638,2021-04-12 00:00:00.000000,2.07015647,2.74257847,4.16521032,702,930,1413,498,675,1076,1.46809635,1.99167483,3.17287064,0.25962853,0.41903874,0.72308322
0,0,SanMarino,,,2021-07-21 03:50:05.473638,2021-04-13 00:00:00.000000,1.88974835,2.52506798,3.91931558,641,856,1330,458,628,1012,1.35081683,1.85194698,2.98247304,0.25422716,0.40284172,0.69300248
0,0,SanMarino,,,2021-07-21 03:50:05.473638,2021-04-14 00:00:00.000000,1.72585567,2.32372491,3.68644051,585,788,1251,421,583,950,1.24127924,1.71865569,2.80062473,0.24957293,0.39447814,0.68365154
0,0,SanMarino,,,2021-07-21 03:50:05.473638,2021-04-15 00:00:00.000000,1.57708246,2.14921384,3.44628668,535,729,1169,386,541,894,1.13946004,1.59654962,2.63553160,0.24116476,0.39070419,0.67085157
0,0,SanMarino,,,2021-07-21 03:50:05.473638,2021-04-16 00:00:00.000000,1.44200212,1.99238575,3.21016380,489,676,1089,354,498,844,1.04516173,1.46778861,2.48702373,0.23675972,0.38319106,0.65436285
0,0,SanMarino,,,2021-07-21 03:50:05.473638,2021-04-17 00:00:00.000000,1.31933428,1.83988363,2.98799546,447,624,1014,325,461,795,0.95804815,1.35929747,2.34423439,0.21939547,0.37317397,0.62647393
0,0,SanMarino,,,2021-07-21 03:50:05.473638,2021-04-18 00:00:00.000000,1.20643459,1.69049480,2.80797728,409,573,952,297,426,749,0.87759286,1.25530606,2.20721680,0.20428029,0.35035541,0.60501057
0,0,SanMarino,,,2021-07-21 03:50:05.473638,2021-04-19 00:00:00.000000,1.08942971,1.54613634,2.63188122,369,524,893,268,390,704,0.79229612,1.15047362,2.07606615,0.19966763,0.33972180,0.58198625
0,0,SanMarino,,,2021-07-21 03:50:05.473638,2021-04-20 00:00:00.000000,0.99226715,1.41398789,2.46080419,336,479,835,244,359,662,0.72074975,1.06042169,1.95351703,0.19437637,0.33585966,0.56278411
0,0,SanMarino,,,2021-07-21 03:50:05.473638,2021-04-21 00:00:00.000000,0.90387169,1.30047656,2.29761790,306,441,779,222,331,622,0.65687456,0.97753572,1.83433240,0.18944468,0.32888953,0.55520235
0,0,SanMarino,,,2021-07-21 03:50:05.473638,2021-04-22 00:00:00.000000,0.82335082,1.19991558,2.14334169,279,407,727,202,306,584,0.59789478,0.90296310,1.72341821,0.17514612,0.32450100,0.53351677
0,0,SanMarino,,,2021-07-21 03:50:05.473638,2021-04-23 00:00:00.000000,0.75026184,1.11360550,1.99802092,254,377,678,184,282,549,0.54371065,0.83381309,1.61875071,0.17834190,0.31930940,0.51386726
0,0,SanMarino,,,2021-07-21 03:50:05.473638,2021-04-24 00:00:00.000000,0.68404024,1.02543258,1.86133836,232,348,631,167,261,515,0.49410575,0.77120443,1.52018481,0.17052717,0.31611640,0.49478389
0,0,SanMarino,,,2021-07-21 03:50:05.473638,2021-04-25 00:00:00.000000,0.62406935,0.93827158,1.73304716,211,318,588,152,242,484,0.44878595,0.71358279,1.42756726,0.16907566,0.29992825,0.48930358
0,0,SanMarino,,,2021-07-21 03:50:05.473638,2021-04-26 00:00:00.000000,0.56839760,0.85806081,1.61601950,192,291,548,138,221,454,0.40740500,0.65372301,1.34067832,0.16602765,0.29111084,0.48629458
0,0,SanMarino,,,2021-07-21 03:50:05.473638,2021-04-27 00:00:00.000000,0.51772908,0.79034415,1.52173858,175,268,516,125,202,427,0.37038866,0.59556586,1.26030130,0.16035404,0.28474560,0.48295679
0,0,SanMarino,,,2021-07-21 03:50:05.473638,2021-04-28 00:00:00.000000,0.47141835,0.72864993,1.43401375,159,247,486,114,184,402,0.33700358,0.54364528,1.18571509,0.16062172,0.28202978,0.47238050
0,0,SanMarino,,,2021-07-21 03:50:05.473638,2021-04-29 00:00:00.000000,0.42896555,0.67239772,1.35229969,145,228,458,104,168,378,0.30666865,0.49783764,1.11635886,0.16203209,0.28062211,0.45881619
0,0,SanMarino,,,2021-07-21 03:50:05.473638,2021-04-30 00:00:00.000000,0.39002485,0.62102951,1.27612209,132,210,433,94,155,356,0.27893399,0.45737689,1.05177370,0.16250970,0.28081740,0.44877762
0,0,SanMarino,,,2021-07-21 03:50:05.473638,2021-05-01 00:00:00.000000,0.35450479,0.57080213,1.20505764,120,193,408,86,142,336,0.25352850,0.42074484,0.99157123,0.15466763,0.27518153,0.43648007
0,0,SanMarino,,,2021-07-21 03:50:05.473638,2021-05-02 00:00:00.000000,0.32237132,0.52747453,1.13873513,109,179,386,78,131,317,0.23033400,0.38733736,0.93541274,0.14567798,0.27305813,0.42216170
0,0,SanMarino,,,2021-07-21 03:50:05.473638,2021-05-03 00:00:00.000000,0.29554337,0.48518406,1.06832210,100,164,362,71,120,299,0.20927698,0.35501432,0.88299964,0.14178742,0.26556389,0.41302490
0,0,SanMarino,,,2021-07-21 03:50:05.473638,2021-05-04 00:00:00.000000,0.27167232,0.44772902,1.00203175,92,151,340,64,110,282,0.18977007,0.32445017,0.83144380,0.14262628,0.25991985,0.41722517
0,0,SanMarino,,,2021-07-21 03:50:05.473638,2021-05-05 00:00:00.000000,0.24674685,0.41746798,0.93951618,83,141,318,58,101,265,0.17187230,0.29868426,0.78163345,0.14196606,0.25662842,0.42649918
0,0,SanMarino,,,2021-07-21 03:50:05.473638,2021-05-06 00:00:00.000000,0.22357108,0.38810324,0.88074084,75,131,298,52,94,249,0.15559957,0.27793799,0.73405897,0.13695809,0.25578597,0.42585214
0,0,SanMarino,,,2021-07-21 03:50:05.473638,2021-05-07 00:00:00.000000,0.20277781,0.36184578,0.82550911,68,122,280,47,87,233,0.14094175,0.25836924,0.68894343,0.13424958,0.25370865,0.42459967
0,0,SanMarino,,,2021-07-21 03:50:05.473638,2021-05-08 00:00:00.000000,0.18575100,0.33668435,0.77374143,63,114,262,44,81,219,0.13122540,0.24106027,0.64632773,0.13316276,0.24919494,0.43362261
0,0,SanMarino,,,2021-07-21 03:50:05.473638,2021-05-09 00:00:00.000000,0.17289418,0.31522101,0.72532454,58,106,246,40,77,205,0.12069108,0.22733469,0.60619779,0.12915587,0.24589246,0.43389465
0,0,SanMarino,,,2021-07-21 03:50:05.473638,2021-05-10 00:00:00.000000,0.15709339,0.29052907,0.68601528,53,98,232,37,71,192,0.10952025,0.21118662,0.56850577,0.13099699,0.24341040,0.43058375
0,0,SanMarino,,,2021-07-21 03:50:05.473638,2021-05-11 00:00:00.000000,0.14262118,0.26870161,0.64946646,48,91,220,34,66,181,0.10062456,0.19608985,0.53500307,0.12310620,0.24084602,0.44118039
0,0,SanMarino,,,2021-07-21 03:50:05.473638,2021-05-12 00:00:00.000000,0.12967639,0.25031217,0.61529809,44,84,208,31,61,171,0.09188477,0.18219241,0.50471215,0.12287712,0.24051559,0.45070070
0,0,SanMarino,,,2021-07-21 03:50:05.473638,2021-05-13 00:00:00.000000,0.11962928,0.23226923,0.58303668,40,78,197,28,57,161,0.08360947,0.16813527,0.47690201,0.12027022,0.23527715,0.43798631
0,0,SanMarino,,,2021-07-21 03:50:05.473638,2021-05-14 00:00:00.000000,0.11068646,0.21522467,0.55261170,37,73,187,25,52,153,0.07594259,0.15482117,0.45106265,0.11817311,0.23203209,0.43196719
0,0,SanMarino,,,2021-07-21 03:50:05.473638,2021-05-15 00:00:00.000000,0.10274789,0.19992262,0.52408963,34,67,177,23,48,143,0.06893083,0.14259926,0.42270428,0.11989053,0.22786875,0.46829983
0,0,SanMarino,,,2021-07-21 03:50:05.473638,2021-05-16 00:00:00.000000,0.09570050,0.18508049,0.49123939,32,62,166,21,44,133,0.06332222,0.13257965,0.39382984,0.12624082,0.22178814,0.45920446
0,0,SanMarino,,,2021-07-21 03:50:05.473638,2021-05-17 00:00:00.000000,0.08888361,0.17300020,0.45552392,30,58,154,19,41,124,0.05878565,0.12307086,0.36694855,0.11833330,0.21777852,0.44333777
0,0,SanMarino,,,2021-07-21 03:50:05.473638,2021-05-18 00:00:00.000000,0.08243375,0.16249338,0.42107822,27,55,142,18,38,115,0.05459396,0.11456319,0.34096173,0.11250421,0.21667048,0.38867730
0,0,SanMarino,,,2021-07-21 03:50:05.473638,2021-05-19 00:00:00.000000,0.07563841,0.15338066,0.38909489,25,52,132,17,36,107,0.05075142,0.10700091,0.31620614,0.10865146,0.21142708,0.38852310
0,0,SanMarino,,,2021-07-21 03:50:05.473638,2021-05-20 00:00:00.000000,0.06959938,0.14326994,0.37392938,23,48,126,16,34,99,0.04723909,0.10038705,0.29287121,0.10888792,0.21370098,0.38762665
0,0,SanMarino,,,2021-07-21 03:50:05.473638,2021-05-21 00:00:00.000000,0.06736235,0.13521305,0.34987173,22,45,118,14,31,91,0.04403536,0.09403250,0.27104646,0.10937789,0.21315988,0.38116205
0,0,SanMarino,,,2021-07-21 03:50:05.473638,2021-05-22 00:00:00.000000,0.06419338,0.12964420,0.32753155,21,43,111,13,30,87,0.04112830,0.08872937,0.25861981,0.11003509,0.21150247,0.36507573
0,0,SanMarino,,,2021-07-21 03:50:05.473638,2021-05-23 00:00:00.000000,0.06205847,0.12509355,0.30670794,21,42,104,13,28,84,0.03931516,0.08328684,0.24843806,0.11079332,0.20832760,0.36089963
0,0,SanMarino,,,2021-07-21 03:50:05.473638,2021-05-24 00:00:00.000000,0.06157879,0.12011497,0.29639169,20,40,100,12,27,78,0.03780860,0.07968420,0.23255946,0.11177738,0.20584413,0.35992150
0,0,SanMarino,,,2021-07-21 03:50:05.473638,2021-05-25 00:00:00.000000,0.05867579,0.11333648,0.28751047,19,38,97,12,25,74,0.03698547,0.07570164,0.22025249,0.11191930,0.20541367,0.35922624
0,0,SanMarino,,,2021-07-21 03:50:05.473638,2021-05-26 00:00:00.000000,0.05614585,0.10787230,0.28003262,19,36,95,12,24,71,0.03601805,0.07301874,0.21051588,0.11024502,0.20459516,0.37573232
0,0,SanMarino,,,2021-07-21 03:50:05.473638,2021-05-27 00:00:00.000000,0.05548939,0.10414901,0.26488946,18,35,89,11,23,68,0.03441788,0.06940880,0.20265490,0.10666054,0.20386451,0.38287965
0,0,SanMarino,,,2021-07-21 03:50:05.473638,2021-05-28 00:00:00.000000,0.05495735,0.09990041,0.24873074,18,33,84,11,22,66,0.03285215,0.06732441,0.19618444,0.10230392,0.20145677,0.38895724
0,0,SanMarino,,,2021-07-21 03:50:05.473638,2021-05-29 00:00:00.000000,0.05448892,0.09441094,0.23364688,18,32,79,10,21,64,0.03183467,0.06421375,0.18882313,0.10228463,0.19721882,0.39238248
0,0,SanMarino,,,2021-07-21 03:50:05.473638,2021-05-30 00:00:00.000000,0.05023337,0.09106371,0.21959298,17,30,74,10,21,60,0.03149612,0.06240655,0.17839720,0.10265028,0.19482472,0.38774089
0,0,SanMarino,,,2021-07-21 03:50:05.473638,2021-05-31 00:00:00.000000,0.04482396,0.08315192,0.20441091,15,28,69,10,20,57,0.03120344,0.05939747,0.16842503,0.09873700,0.18877451,0.37825553
0,0,SanMarino,,,2021-07-21 03:50:05.473638,2021-06-01 00:00:00.000000,0.03992653,0.07549094,0.19015813,13,25,64,10,18,53,0.02966543,0.05569563,0.15853596,0.09574953,0.18813758,0.37877786
0,0,SanMarino,,,2021-07-21 03:50:05.473638,2021-06-02 00:00:00.000000,0.03548670,0.06801208,0.17676303,12,23,59,9,17,50,0.02745292,0.05163505,0.14890862,0.09539262,0.18695937,0.37866338
0,0,SanMarino,,,2021-07-21 03:50:05.473638,2021-06-03 00:00:00.000000,0.03149177,0.06109854,0.16423811,10,20,55,8,16,47,0.02461963,0.04738231,0.13964653,0.09534102,0.18549266,0.37785096
0,0,SanMarino,,,2021-07-21 03:50:05.473638,2021-06-04 00:00:00.000000,0.02791112,0.05524334,0.15256557,9,18,51,7,14,44,0.02195354,0.04346276,0.13008021,0.09590747,0.18651979,0.37512560
0,0,SanMarino,,,2021-07-21 03:50:05.473638,2021-06-05 00:00:00.000000,0.02472191,0.05034488,0.14171075,8,17,48,6,13,41,0.01953655,0.03952479,0.12107609,0.09246527,0.18984936,0.38183996
0,0,SanMarino,,,2021-07-21 03:50:05.473638,2021-06-06 00:00:00.000000,0.02189326,0.04585844,0.13162999,7,15,44,5,12,38,0.01735959,0.03569841,0.11263873,0.08845001,0.19165535,0.41459387
0,0,SanMarino,,,2021-07-21 03:50:05.473638,2021-06-07 00:00:00.000000,0.01938098,0.04166411,0.12227514,6,14,41,5,10,35,0.01523415,0.03217736,0.10475628,0.08736917,0.19315993,0.41259707
0,0,SanMarino,,,2021-07-21 03:50:05.473638,2021-06-08 00:00:00.000000,0.01715240,0.03721720,0.11359682,5,12,38,4,9,33,0.01325351,0.02896348,0.09740724,0.08821499,0.19200354,0.42697354
0,0,SanMarino,,,2021-07-21 03:50:05.473638,2021-06-09 00:00:00.000000,0.01494548,0.03300341,0.10554821,5,11,35,3,8,30,0.01148592,0.02606309,0.09056470,0.08913154,0.19173029,0.43161893
0,0,SanMarino,,,2021-07-21 03:50:05.473638,2021-06-10 00:00:00.000000,0.01284323,0.02931472,0.09810166,4,9,33,3,7,28,0.00992359,0.02352896,0.08419969,0.08998634,0.19242576,0.43170948
0,0,SanMarino,,,2021-07-21 03:50:05.473638,2021-06-11 00:00:00.000000,0.01102022,0.02623125,0.09124492,3,8,30,2,7,26,0.00855273,0.02122691,0.07828801,0.09068182,0.19092001,0.42772134
0,0,SanMarino,,,2021-07-21 03:50:05.473638,2021-06-12 00:00:00.000000,0.00945232,0.02341973,0.08489327,3,7,28,2,6,24,0.00735660,0.01914291,0.07281290,0.08977271,0.18974404,0.42291354
0,0,SanMarino,,,2021-07-21 03:50:05.473638,2021-06-13 00:00:00.000000,0.00827387,0.02095283,0.07899685,2,7,26,2,5,22,0.00641980,0.01721129,0.06773923,0.08730497,0.18945157,0.43028857
0,0,SanMarino,,,2021-07-21 03:50:05.473638,2021-06-14 00:00:00.000000,0.01092526,0.02526175,0.08017874,3,8,27,1,5,21,0.00562483,0.01542525,0.06303178,0.08539890,0.19384270,0.43135243
0,0,SanMarino,,,2021-07-21 03:50:05.473638,2021-06-15 00:00:00.000000,0.01228506,0.02834493,0.08174750,4,9,27,2,5,20,0.00687901,0.01534767,0.06071372,0.08434991,0.19588163,0.43143324
0,0,SanMarino,,,2021-07-21 03:50:05.473638,2021-06-16 00:00:00.000000,0.01347973,0.03162770,0.08327788,4,10,28,2,5,20,0.00711881,0.01640613,0.05987780,0.08126108,0.19552327,0.43145033
0,0,SanMarino,,,2021-07-21 03:50:05.473638,2021-06-17 00:00:00.000000,0.01470422,0.03529253,0.08595323,4,11,29,2,6,20,0.00805925,0.01830447,0.05957814,0.07768560,0.18768510,0.43001195
0,0,SanMarino,,,2021-07-21 03:50:05.473638,2021-06-18 00:00:00.000000,0.01508845,0.03720687,0.08943783,5,12,30,2,6,19,0.00874781,0.02031048,0.05793289,0.07462154,0.18419964,0.42656682
0,0,SanMarino,,,2021-07-21 03:50:05.473638,2021-06-19 00:00:00.000000,0.01518654,0.03957043,0.09537357,5,13,32,3,7,19,0.00938180,0.02177519,0.05664484,0.07547108,0.18694145,0.41988033
0,0,SanMarino,,,2021-07-21 03:50:05.473638,2021-06-20 00:00:00.000000,0.01529718,0.04152738,0.10334745,5,14,35,3,7,20,0.00940305,0.02326982,0.06033632,0.07203026,0.18854669,0.41040535
0,0,SanMarino,,,2021-07-21 03:50:05.473638,2021-06-21 00:00:00.000000,0.01773464,0.04344219,0.10602042,6,14,35,3,8,21,0.00944837,0.02466445,0.06381534,0.06949484,0.19010497,0.40158507
0,0,SanMarino,,,2021-07-21 03:50:05.473638,2021-06-22 00:00:00.000000,0.02059357,0.04660560,0.11207595,6,15,38,3,8,22,0.00984122,0.02529392,0.06748257,0.06775663,0.18802648,0.41782863
0,0,SanMarino,,,2021-07-21 03:50:05.473638,2021-06-23 00:00:00.000000,0.02135161,0.05018181,0.11695247,7,17,39,3,9,24,0.01128787,0.02699956,0.07217404,0.06660857,0.18759457,0.43535376
0,0,SanMarino,,,2021-07-21 03:50:05.473638,2021-06-24 00:00:00.000000,0.02204948,0.05043046,0.12063635,7,17,40,4,9,25,0.01288985,0.02786024,0.07386800,0.06579500,0.18757853,0.44115435
0,0,SanMarino,,,2021-07-21 03:50:05.473638,2021-06-25 00:00:00.000000,0.02269596,0.05173351,0.12389776,7,17,42,4,10,25,0.01361077,0.02954683,0.07503804,0.06537904,0.18605124,0.44958495
0,0,SanMarino,,,2021-07-21 03:50:05.473638,2021-06-26 00:00:00.000000,0.02328815,0.05207647,0.12687157,7,17,43,4,10,25,0.01401153,0.03101765,0.07588077,0.06640962,0.18275793,0.45969151
0,0,SanMarino,,,2021-07-21 03:50:05.473638,2021-06-27 00:00:00.000000,0.02343924,0.05431037,0.13025818,7,18,44,4,10,25,0.01439655,0.03097035,0.07651012,0.06232253,0.18196846,0.46108124
0,0,SanMarino,,,2021-07-21 03:50:05.473638,2021-06-28 00:00:00.000000,0.02401438,0.05488833,0.13097979,8,18,44,4,10,27,0.01452827,0.03200313,0.08014737,0.05998289,0.18272477,0.46384302
0,0,SanMarino,,,2021-07-21 03:50:05.473638,2021-06-29 00:00:00.000000,0.02547800,0.05512450,0.12957778,8,18,43,5,11,28,0.01477881,0.03269885,0.08370503,0.05957475,0.18647271,0.46913747
0,0,SanMarino,,,2021-07-21 03:50:05.473638,2021-06-30 00:00:00.000000,0.02784205,0.05806610,0.12822530,9,19,43,5,11,28,0.01489396,0.03308393,0.08387867,0.06024097,0.18602406,0.46517327
0,0,SanMarino,,,2021-07-21 03:50:05.473638,2021-07-01 00:00:00.000000,0.02819328,0.05974961,0.12655772,9,20,42,5,11,29,0.01565997,0.03505929,0.08567375,0.06025727,0.18997418,0.45148724
0,0,SanMarino,,,2021-07-21 03:50:05.473638,2021-07-02 00:00:00.000000,0.02794418,0.06022889,0.12859646,9,20,43,5,12,28,0.01647181,0.03611521,0.08533899,0.05898328,0.18662434,0.45105319
0,0,SanMarino,,,2021-07-21 03:50:05.473638,2021-07-03 00:00:00.000000,0.02771896,0.06030530,0.12802288,9,20,43,5,12,28,0.01690223,0.03678149,0.08462435,0.05607778,0.18365497,0.43529179
0,0,SanMarino,,,2021-07-21 03:50:05.473638,2021-07-04 00:00:00.000000,0.02742708,0.06130740,0.13357415,9,20,45,5,12,28,0.01652216,0.03742409,0.08375481,0.05435545,0.18897549,0.41160104
0,0,SanMarino,,,2021-07-21 03:50:05.473638,2021-07-05 00:00:00.000000,0.02879231,0.06385538,0.12966214,9,21,44,5,12,28,0.01673221,0.03743219,0.08367114,0.05410607,0.18325420,0.40510779
0,0,SanMarino,,,2021-07-21 03:50:05.473638,2021-07-06 00:00:00.000000,0.03022323,0.06665144,0.12403641,10,22,42,5,12,29,0.01708672,0.03824141,0.08583645,0.05682640,0.17930570,0.40472139
0,0,SanMarino,,,2021-07-21 03:50:05.473638,2021-07-07 00:00:00.000000,0.03172858,0.06781356,0.12533425,10,23,42,6,13,28,0.01812655,0.03974210,0.08326572,0.05802589,0.17956616,0.40456610
0,0,SanMarino,,,2021-07-21 03:50:05.473638,2021-07-08 00:00:00.000000,0.03320722,0.06915693,0.12619330,11,23,42,6,13,28,0.01923666,0.04110174,0.08399775,0.05822528,0.17976190,0.40422008
0,0,SanMarino,,,2021-07-21 03:50:05.473638,2021-07-09 00:00:00.000000,0.03355565,0.07187041,0.12790350,11,24,43,6,13,28,0.01967177,0.04095118,0.08485329,0.05858506,0.17931615,0.40365307
0,0,SanMarino,,,2021-07-21 03:50:05.473638,2021-07-10 00:00:00.000000,0.03266393,0.07078489,0.12958024,11,24,43,6,14,29,0.01975277,0.04182934,0.08573538,0.05963364,0.17482867,0.40266972
0,0,SanMarino,,,2021-07-21 03:50:05.473638,2021-07-11 00:00:00.000000,0.03170602,0.07037105,0.13108713,10,23,44,6,14,29,0.01986224,0.04255883,0.08659360,0.05837545,0.16901399,0.40680715
0,0,SanMarino,,,2021-07-21 03:50:05.473638,2021-07-12 00:00:00.000000,0.03349925,0.07237165,0.14298630,11,24,48,6,14,29,0.01945483,0.04374214,0.08740731,0.05741987,0.16285067,0.41552471
0,0,SanMarino,,,2021-07-21 03:50:05.473638,2021-07-13 00:00:00.000000,0.03443757,0.07583175,0.14763079,11,25,50,6,15,30,0.02003457,0.04429567,0.08996465,0.05772280,0.16184238,0.41779480
0,0,SanMarino,,,2021-07-21 03:50:05.473638,2021-07-14 00:00:00.000000,0.03542278,0.07587036,0.14590199,12,25,49,6,15,31,0.02037486,0.04574172,0.09278871,0.06151705,0.16343971,0.41795593
0,0,SanMarino,,,2021-07-21 03:50:05.473638,2021-07-15 00:00:00.000000,0.03595440,0.07423462,0.15924588,12,25,54,7,16,31,0.02087573,0.04761371,0.09385053,0.06061290,0.16410745,0.43225958
0,0,SanMarino,,,2021-07-21 03:50:05.473638,2021-07-16 00:00:00.000000,0.03498758,0.07316435,0.17014408,11,24,57,7,15,31,0.02107029,0.04680842,0.09387985,0.05852879,0.16534351,0.44792435
0,0,SanMarino,,,2021-07-21 03:50:05.473638,2021-07-17 00:00:00.000000,0.03407049,0.07191762,0.18831942,11,24,63,7,15,32,0.02155985,0.04706253,0.09477733,0.06048725,0.17573388,0.44647018
0,0,SanMarino,,,2021-07-21 03:50:05.473638,2021-07-18 00:00:00.000000,0.03290916,0.07102611,0.20524475,11,24,69,7,15,32,0.02158261,0.04619590,0.09620669,0.06113039,0.18580579,0.46477144
0,0,SanMarino,,,2021-07-21 03:50:05.473638,2021-07-19 00:00:00.000000,0.02916773,0.06558405,0.19538242,9,22,66,7,14,35,0.02072148,0.04412857,0.10494869,0.06009623,0.18910480,0.49525553
0,0,SanMarino,,,2021-07-21 03:50:05.473638,2021-07-20 00:00:00.000000,0.02643977,0.06000798,0.18425708,8,20,62,6,14,36,0.01878172,0.04218026,0.10812144,0.05949655,0.19118721,0.51248390
0,0,SanMarino,,,2021-07-21 03:50:05.473638,2021-07-21 00:00:00.000000,0.02425557,0.05447062,0.17167834,8,18,58,5,13,36,0.01676173,0.03990690,0.10747557,0.05930129,0.19274311,0.51987145
0,0,SanMarino,,,2021-07-21 03:50:05.473638,2021-07-22 00:00:00.000000,0.02212065,0.04963259,0.15867721,7,16,53,5,12,35,0.01480215,0.03686700,0.10428276,0.05923747,0.19291505,0.52265987
0,0,SanMarino,,,2021-07-21 03:50:05.473638,2021-07-23 00:00:00.000000,0.02007580,0.04601060,0.14586788,6,15,49,4,11,33,0.01302424,0.03397972,0.09946147,0.05921535,0.19303468,0.52366100
0,0,SanMarino,,,2021-07-21 03:50:05.473638,2021-07-24 00:00:00.000000,0.01809823,0.04206829,0.13360082,6,14,45,4,10,31,0.01205236,0.03122263,0.09366995,0.05920711,0.19311203,0.52401394
0,0,SanMarino,,,2021-07-21 03:50:05.473638,2021-07-25 00:00:00.000000,0.01585000,0.03746339,0.12206098,5,12,41,3,9,29,0.01107352,0.02850563,0.08737510,0.05920385,0.19315992,0.52413756
0,0,SanMarino,,,2021-07-21 03:50:05.473638,2021-07-26 00:00:00.000000,0.01363616,0.03330180,0.11102512,4,11,37,3,8,27,0.01012027,0.02585571,0.08090347,0.05920250,0.19320549,0.52418076
0,0,SanMarino,,,2021-07-21 03:50:05.473638,2021-07-27 00:00:00.000000,0.01171226,0.03021892,0.10057526,3,10,34,3,8,25,0.00906150,0.02363046,0.07447900,0.05920192,0.19323440,0.52419585
0,0,SanMarino,,,2021-07-21 03:50:05.473638,2021-07-28 00:00:00.000000,0.01004921,0.02741522,0.09093479,3,9,30,2,7,23,0.00781024,0.02144798,0.06825101,0.05920166,0.19325051,0.52420112
0,0,SanMarino,,,2021-07-21 03:50:05.473638,2021-07-29 00:00:00.000000,0.00861252,0.02467808,0.08245006,2,8,27,2,6,21,0.00671823,0.01958674,0.06266689,0.05920155,0.19325943,0.52420296
0,0,SanMarino,,,2021-07-21 03:50:05.473638,2021-07-30 00:00:00.000000,0.00737461,0.02211680,0.07598691,2,7,25,1,6,19,0.00576973,0.01772815,0.05821415,0.05920149,0.19326436,0.52420360
0,0,SanMarino,,,2021-07-21 03:50:05.473638,2021-07-31 00:00:00.000000,0.00631014,0.01985668,0.06961667,2,6,23,1,5,18,0.00494891,0.01588857,0.05398359,0.05920147,0.19326707,0.52420382
0,0,SanMarino,,,2021-07-21 03:50:05.473638,2021-08-01 00:00:00.000000,0.00539630,0.01787555,0.06335405,1,6,21,1,4,16,0.00424063,0.01423939,0.04924932,0.05920146,0.19326857,0.52420390
0,0,SanMarino,,,2021-07-21 03:50:05.473638,2021-08-02 00:00:00.000000,0.00461277,0.01609293,0.05765459,1,5,19,1,4,15,0.00373778,0.01278248,0.04499059,0.05920145,0.19326939,0.52420393
0,0,SanMarino,,,2021-07-21 03:50:05.473638,2021-08-03 00:00:00.000000,0.00401058,0.01448916,0.05367080,1,4,18,1,3,14,0.00331071,0.01151644,0.04232549,0.05920145,0.19326984,0.52420394
